*** Darwin 10x10 ***
Turn = 0.
  0123456789
0 ..........
1 ......f...
2 h....r....
3 ..........
4 ..........
5 ..........
6 ..........
7 ..........
8 .t........
9 ..........

Turn = 2.
  0123456789
0 ..........
1 ......f...
2 h..r......
3 ..........
4 ..........
5 ..........
6 ..........
7 ..........
8 .t........
9 ..........

Turn = 4.
  0123456789
0 ..........
1 ......f...
2 hr........
3 ..........
4 ..........
5 ..........
6 ..........
7 ..........
8 .t........
9 ..........

Turn = 6.
  0123456789
0 ..........
1 ......f...
2 rr........
3 ..........
4 ..........
5 ..........
6 ..........
7 ..........
8 .t........
9 ..........

Turn = 8.
  0123456789
0 r.........
1 ......f...
2 ..........
3 ..........
4 .r........
5 ..........
6 ..........
7 ..........
8 .t........
9 ..........

Turn = 10.
  0123456789
0 .r........
1 ......f...
2 ..........
3 ..........
4 ..........
5 ..........
6 .r........
7 ..........
8 .t........
9 ..........

Turn = 12.
  0123456789
0 ...r......
1 ......f...
2 ..........
3 ..........
4 ..........
5 ..........
6 ..........
7 .r........
8 .r........
9 ..........

Turn = 14.
  0123456789
0 .....r....
1 ......f...
2 ..........
3 ..........
4 ..........
5 ..........
6 ..........
7 r.........
8 ...r......
9 ..........

Turn = 16.
  0123456789
0 .......r..
1 ......f...
2 ..........
3 ..........
4 ..........
5 ..........
6 r.........
7 ..........
8 .....r....
9 ..........

Turn = 18.
  0123456789
0 .........r
1 ......f...
2 ..........
3 ..........
4 r.........
5 ..........
6 ..........
7 ..........
8 .......r..
9 ..........

Turn = 20.
  0123456789
0 .........r
1 ......f...
2 r.........
3 ..........
4 ..........
5 ..........
6 ..........
7 ..........
8 .........r
9 ..........

Turn = 22.
  0123456789
0 r......r..
1 ......f...
2 ..........
3 ..........
4 ..........
5 ..........
6 ..........
7 ..........
8 ..........
9 .........r

Turn = 24.
  0123456789
0 .r...r....
1 ......f...
2 ..........
3 ..........
4 ..........
5 ..........
6 ..........
7 ..........
8 ..........
9 .........r

Turn = 26.
  0123456789
0 ...rr.....
1 ......f...
2 ..........
3 ..........
4 ..........
5 ..........
6 ..........
7 ..........
8 ..........
9 .........r

Turn = 28.
  0123456789
0 ...rr.....
1 ......f...
2 ..........
3 ..........
4 ..........
5 ..........
6 ..........
7 ..........
8 ..........
9 .........r

*** Darwin 20x41 ***
Turn = 0.
  01234567890123456789012345678901234567890
0 .........................................
1 .r.......................................
2 .........................................
3 ...................f.....................
4 .........................................
5 .........................................
6 .........................................
7 ........................r................
8 .........................................
9 .............................t...........
0 .........................................
1 .........................................
2 .........................................
3 ..........f..............f..............r
4 .........................................
5 .........................................
6 ...............r.........................
7 .........................................
8 .........................................
9 ....r....................................

Turn = 3.
  01234567890123456789012345678901234567890
0 r........................................
1 .........................................
2 .........................................
3 ...................f.....................
4 .........................................
5 .........................................
6 .........................................
7 ...........................r.............
8 .........................................
9 .............................t...........
0 .........................................
1 .........................................
2 .........................................
3 ..........f..............f...............
4 .........................................
5 .........................................
6 ........................................r
7 .........................................
8 .........................................
9 .......r.......r.........................

Turn = 6.
  01234567890123456789012345678901234567890
0 r........................................
1 .........................................
2 .........................................
3 ...................f.....................
4 .........................................
5 .........................................
6 .........................................
7 ..............................r..........
8 .........................................
9 .............................t...........
0 .........................................
1 .........................................
2 .........................................
3 ..........f..............f...............
4 .........................................
5 .........................................
6 .........................................
7 .........................................
8 .........................................
9 ..........r..r..........................r

*** Darwin 12x28 ***
Turn = 0.
  0123456789012345678901234567
0 ................r.....r.....
1 .t....r.....................
2 ...t.f................r.....
3 .....ft....h................
4 ....h................h......
5 ......rh............t.......
6 ...........r.........h......
7 ........r.t............f....
8 .r..........................
9 ...........f.tf...........h.
0 ............................
1 ............................

Turn = 4.
  0123456789012345678901234567
0 ...........h........r.......
1 .t.....r..r.................
2 ...t.f....................r.
3 .....tt.....................
4 ......................r..h..
5 .........r..........t.......
6 ...............r............
7 ....rr....t............f....
8 .....r......................
9 ...........f.tt.......h.....
0 .....................h......
1 ............................

Turn = 8.
  0123456789012345678901234567
0 .........r.h............r..r
1 .t............r.............
2 ...t.t......................
3 .....tt.....................
4 ...........................h
5 .............r......t.......
6 ...................r........
7 .r........t............f....
8 .........r............r.....
9 ...........f.tt...h.........
0 ............................
1 ....r................h......

Turn = 12.
  0123456789012345678901234567
0 ..........r..r..............
1 .t................r.......r.
2 ...t.t.....................r
3 .....tt.....................
4 ...........................h
5 .................r..t.......
6 .......................r....
7 ..........t............f....
8 .............r..............
9 r..........f.ttt............
0 ............................
1 .r...................hr.....

Turn = 16.
  0123456789012345678901234567
0 ..............r..r..........
1 .t....................r.....
2 ...t.t......................
3 .....tt.............r.....r.
4 ............................
5 ....................r.....r.
6 ..........................rr
7 ..........t............f....
8 .................r..........
9 r..........f.ttt............
0 ..r.........................
1 .....................h....r.

Turn = 20.
  0123456789012345678901234567
0 ..................r..r......
1 .t.................r......r.
2 ...t.t......................
3 .....tt...............r.....
4 ............................
5 r.......................r...
6 .......................r...r
7 ..........t............f....
8 .....................r......
9 ...........f.ttt...........r
0 ......r....................r
1 .....................h......

Turn = 24.
  0123456789012345678901234567
0 ......................r..r.r
1 rt.............r............
2 ...t.t......................
3 .....tt...........r.........
4 ............................
5 ...........................r
6 ...................r........
7 ..........t............f....
8 .........................rr.
9 ...........f.ttt...........r
0 ..........r.................
1 .....................h.....r

Turn = 28.
  0123456789012345678901234567
0 r.........................r.
1 .t.........r...............r
2 ...t.t....................rr
3 .....tt.......r.............
4 ............................
5 ..........................r.
6 ...............r...........r
7 ..........t............f....
8 ............................
9 ...........f.ttt............
0 .............t...........r..
1 .....................h..r...

Turn = 32.
  0123456789012345678901234567
0 ...........................r
1 .t.....r................r.r.
2 ...t.t......................
3 r....tt...r................r
4 ..........................r.
5 ..........................r.
6 ...........r................
7 ..........t............f....
8 ............................
9 ...........f.ttt...........r
0 .............t..............
1 .....................rr.....

Turn = 36.
  0123456789012345678901234567
0 ........................r...
1 .t...t..............r.r.....
2 ...t.t......................
3 .....trr....................
4 ......................r.....
5 ............................
6 .......r...................r
7 r.........t...........rf...r
8 ............................
9 ...........f.ttt..........r.
0 .............t..............
1 .................r..........

Turn = 40.
  0123456789012345678901234567
0 ....................r.......
1 .t...t..........r.r.........
2 ...t.tr.....................
3 ......................r....r
4 .....r............r.........
5 ............................
6 ...r........................
7 ......r...t............f....
8 ............................
9 ...........f.ttt............
0 .............t..............
1 r............r...........r.r

Turn = 44.
  0123456789012345678901234567
0 .....r..........r.....r....r
1 .t...t......r.r.............
2 ...t.t......................
3 ............................
4 ..............r.............
5 ............................
6 r...........................
7 ..........t............f....
8 .....r......................
9 ...........f.ttt............
0 .............t..............
1 ...r..r..r...........r..r...

Turn = 48.
  0123456789012345678901234567
0 .r..........r...............
1 .t...t..r.r.............rr..
2 r..t.t......................
3 ............................
4 ..........r.................
5 ............................
6 ............................
7 ..........t............f....
8 ............................
9 ...........f.ttt............
0 ....r..r.....t..............
1 ......r..r.......r..r.......

Turn = 52.
  0123456789012345678901234567
0 r.......r...................
1 tt...trr....................
2 ...t.t......................
3 ............................
4 ......r.....................
5 ........................rr..
6 .......r....................
7 ......r...t............f....
8 ............................
9 ...........f.ttt............
0 r............t..............
1 .............rr.r...........

Turn = 56.
  0123456789012345678901234567
0 r.r..t......................
1 .....tt.....................
2 ...t.t......................
3 ......r.r...................
4 .rr...r.....................
5 ............................
6 ............................
7 ..........t............f....
8 ............................
9 ...........f.ttr........rr..
0 .............t.r............
1 .r...........tt.............

Turn = 60.
  0123456789012345678901234567
0 ...rr.r.....................
1 .....tt.....................
2 ...t.tt.....................
3 r...........r...............
4 ..r.........................
5 ............................
6 ............................
7 ..........t............f....
8 .r..........................
9 ...........f.ttt............
0 .............t.t............
1 .....r.......tt.........rr..

Turn = 64.
  0123456789012345678901234567
0 rrr.......r.................
1 .....tt.....................
2 ...t.tt.....................
3 r...............r...........
4 ............................
5 ............................
6 ............................
7 ..........t............frr..
8 ............................
9 ...........f.ttt............
0 .............t.t............
1 .r.......r...tt.............

Turn = 68.
  0123456789012345678901234567
0 r.r.r.........r.............
1 .....tt.....................
2 ...t.tt.....................
3 ....................r...rr..
4 ..r.........................
5 ............................
6 ............................
7 ..........t............f....
8 ............................
9 r..........f.ttt............
0 .............t.t............
1 ............rr.r............

Turn = 72.
  0123456789012345678901234567
0 ....r.r.r.........r.....rr..
1 .....tt.....................
2 ...t.tt.....................
3 ........................r...
4 ............................
5 r...........................
6 ............................
7 ..........t............f....
8 ..r.........................
9 ...........f.ttt............
0 .............t.t............
1 ..........r....t...r........

Turn = 76.
  0123456789012345678901234567
0 ........r.r.r.........r.....
1 r....tt....................r
2 ...t.tt.....................
3 ........................r..r
4 ............................
5 ............................
6 ............................
7 ..........t............f....
8 ............................
9 ...........f.ttt............
0 .............t.t............
1 ..r...r........t.......r....

Turn = 80.
  0123456789012345678901234567
0 r...........r.r.r.........r.
1 .....tt....................r
2 ...t.tt..................r..
3 ............................
4 ............................
5 ............................
6 ............................
7 ..........t............fr...
8 ............................
9 ...........f.ttt............
0 r............t.t............
1 ..r............t...........r

Turn = 84.
  0123456789012345678901234567
0 ................r.r.r.....r.
1 .....tt.....................
2 ...t.tt..............r......
3 r..........................r
4 ............................
5 ............................
6 r...........................
7 ..........t............f....
8 ...........................r
9 ...........f.ttt............
0 .............t.t............
1 r..............t........r...

Turn = 88.
  0123456789012345678901234567
0 ....................r.rrr...
1 .....tt.....................
2 ...t.tt..........r..........
3 ............................
4 r...........................
5 r..........................r
6 ...........................r
7 ..........t............f....
8 ............................
9 ...........f.ttt............
0 .............t.t............
1 ....r..........t...........r

Turn = 92.
  0123456789012345678901234567
0 ....................r.r....r
1 r....tt.....................
2 ...t.tt......r.........r....
3 ...........................r
4 ............................
5 ....r.......................
6 ............................
7 ..........t............f....
8 ...........................r
9 ...........f.ttt...........r
0 .............t.t............
1 ........r......t............

Turn = 96.
  0123456789012345678901234567
0 ................r.........r.
1 r....tt..................r..
2 ...t.tt..r..................
3 ...........................r
4 ............................
5 ........r...................
6 .......................r...r
7 ..........t............f....
8 ........................r...
9 ...........f.ttt............
0 .............t.t............
1 ............r..t............

Turn = 100.
  0123456789012345678901234567
0 ............r..............r
1 .....tt..............r......
2 ...t.trr....................
3 ............................
4 .........................r..
5 r...........r............r..
6 .....................r......
7 ..........t...............r.
8 ....................r.......
9 ...........f.ttt............
0 .............t.t............
1 ...............r.r..........

Turn = 104.
  0123456789012345678901234567
0 ........r...................
1 .....tt..........r..........
2 ...t.ttt....................
3 ............................
4 .....................r.....r
5 ................r....r......
6 .................r..........
7 ..........t.................
8 ................r...........
9 r..........f.ttt...........r
0 .............t.t............
1 ...................r.r......

Turn = 108.
  0123456789012345678901234567
0 ....r.......................
1 .....tt......r..............
2 ...t.ttt....................
3 ............................
4 .................r..........
5 ............................
6 .............r....rr........
7 ..........t.................
8 .............t.............r
9 ...........f.ttt............
0 .............t.t............
1 .r.....................r.rr.

Turn = 112.
  0123456789012345678901234567
0 r...........................
1 .....tt..r..................
2 ...t.ttt....................
3 ............................
4 .............r..............
5 ............................
6 .........r..................
7 ..........t.................
8 .............t..............
9 ...........f.ttt............
0 .............t.t..rr........
1 .....r.................r.rrr

*** Darwin 3x3 ***
Turn = 0.
  012
0 .f.
1 .tr
2 ...

Turn = 5.
  012
0 .t.
1 .tt
2 ...

Turn = 10.
  012
0 .t.
1 .tt
2 ...

Turn = 15.
  012
0 .t.
1 .tt
2 ...

Turn = 20.
  012
0 .t.
1 .tt
2 ...

*** Darwin 12x12 ***
Turn = 0.
  012345678901
0 ............
1 .....t...f..
2 ............
3 ............
4 ....t......f
5 ...h........
6 ....r.......
7 ............
8 ............
9 ............
0 ............
1 ...f........

Turn = 1.
  012345678901
0 ............
1 .....t...f..
2 ............
3 ............
4 ...ht......f
5 ............
6 .....r......
7 ............
8 ............
9 ............
0 ............
1 ...f........

Turn = 2.
  012345678901
0 ............
1 .....t...f..
2 ............
3 ...h........
4 ....t......f
5 ............
6 ......r.....
7 ............
8 ............
9 ............
0 ............
1 ...f........

Turn = 3.
  012345678901
0 ............
1 .....t...f..
2 ...h........
3 ............
4 ....t......f
5 ............
6 .......r....
7 ............
8 ............
9 ............
0 ............
1 ...f........

Turn = 4.
  012345678901
0 ............
1 ...h.t...f..
2 ............
3 ............
4 ....t......f
5 ............
6 ........r...
7 ............
8 ............
9 ............
0 ............
1 ...f........

Turn = 5.
  012345678901
0 ...h........
1 .....t...f..
2 ............
3 ............
4 ....t......f
5 ............
6 .........r..
7 ............
8 ............
9 ............
0 ............
1 ...f........

*** Darwin 10x10 ***
Turn = 0.
  0123456789
0 ..........
1 f.........
2 ...t..r...
3 ......r...
4 ........r.
5 .......t..
6 ....h.....
7 ...f......
8 ..........
9 .r........

Turn = 1.
  0123456789
0 ..........
1 f.........
2 ...t..r...
3 .....r..r.
4 ..........
5 .......t..
6 ...h......
7 ...f......
8 .r........
9 ..........

Turn = 2.
  0123456789
0 ..........
1 f.........
2 ...t.r..r.
3 ....r.....
4 ..........
5 .......t..
6 ..h.......
7 .r.f......
8 ..........
9 ..........

Turn = 3.
  0123456789
0 ..........
1 f.......r.
2 ...tr.....
3 ...r......
4 ..........
5 .......t..
6 .r........
7 .r.f......
8 ..........
9 ..........

Turn = 4.
  0123456789
0 ........r.
1 f.........
2 ...rr.....
3 ...t......
4 ..........
5 .......t..
6 rr........
7 ...f......
8 ..........
9 ..........

Turn = 5.
  0123456789
0 ........r.
1 f.........
2 ...rr.....
3 ..........
4 ...r......
5 .r.....t..
6 r.........
7 ...f......
8 ..........
9 ..........

Turn = 6.
  0123456789
0 .......r..
1 f...r.....
2 ..........
3 ...r......
4 .r........
5 r..r...t..
6 ..........
7 ...f......
8 ..........
9 ..........

Turn = 7.
  0123456789
0 ....r.r...
1 f.........
2 ..........
3 .r........
4 r..r......
5 .......t..
6 ...r......
7 ...f......
8 ..........
9 ..........

Turn = 8.
  0123456789
0 ....rr....
1 f.........
2 .r........
3 r.........
4 ..........
5 ...r...t..
6 ...r......
7 ....r.....
8 ..........
9 ..........

Turn = 9.
  0123456789
0 ....rr....
1 fr........
2 r.........
3 ..........
4 ..........
5 ...r...t..
6 ..........
7 ...r.r....
8 ..........
9 ..........

Turn = 10.
  0123456789
0 .r........
1 r...rr....
2 r.........
3 ..........
4 ..........
5 ....r..t..
6 ..........
7 ......r...
8 ...r......
9 ..........

Turn = 11.
  0123456789
0 rr........
1 r.........
2 ....rr....
3 ..........
4 ..........
5 .....r.t..
6 ..........
7 .......r..
8 ..........
9 ...r......

Turn = 12.
  0123456789
0 r.r.......
1 r.........
2 ..........
3 ....rr....
4 ..........
5 ......rt..
6 ..........
7 ........r.
8 ..........
9 ...r......

Turn = 13.
  0123456789
0 .r.r......
1 r.........
2 ..........
3 ..........
4 ....rr....
5 ......r.r.
6 ..........
7 .........r
8 ..........
9 ..r.......

Turn = 14.
  0123456789
0 ..r.r.....
1 ..........
2 r.........
3 ..........
4 ..........
5 ....rr.r.r
6 ..........
7 .........r
8 ..........
9 .r........

Turn = 15.
  0123456789
0 ...r.r....
1 ..........
2 ..........
3 r.........
4 ..........
5 ........rr
6 ....rr....
7 ..........
8 .........r
9 r.........

Turn = 16.
  0123456789
0 ....r.r...
1 ..........
2 ..........
3 ..........
4 r.........
5 ........r.
6 .........r
7 ....rr....
8 ..........
9 r........r

Turn = 17.
  0123456789
0 .....r.r..
1 ..........
2 ..........
3 ..........
4 ........r.
5 r.........
6 ..........
7 .........r
8 ....rr....
9 r........r

Turn = 18.
  0123456789
0 ......r.r.
1 ..........
2 ..........
3 ........r.
4 ..........
5 ..........
6 r.........
7 ..........
8 .........r
9 .r..rr...r

Turn = 19.
  0123456789
0 .......r.r
1 ..........
2 ........r.
3 ..........
4 ..........
5 ..........
6 ..........
7 r.........
8 .........r
9 ..r.rr...r

Turn = 20.
  0123456789
0 ........rr
1 ........r.
2 ..........
3 ..........
4 ..........
5 ..........
6 ..........
7 ..........
8 r.......r.
9 ...rrr...r

*** Darwin 50x50 ***
Turn = 0.
  01234567890123456789012345678901234567890123456789
0 ..................................................
1 ..................................................
2 .....................h............................
3 ..................................................
4 ..................................................
5 ..................................................
6 ..................................................
7 .............t...............................f....
8 ..................................................
9 ..................................................
0 ..................................................
1 ..................................................
2 ..................................................
3 ......................................t........t..
4 ...h..............................................
5 ..................................................
6 ..................................................
7 ......t...........................................
8 ..................................................
9 ..................................................
0 ..................................................
1 ..................................................
2 ..................................................
3 ..................................................
4 ..................................................
5 ....................f..................f..........
6 ..................................................
7 ..................................................
8 ..................................................
9 .................................................r
0 ..................................................
1 ..................................................
2 ..............................r...................
3 ..................................................
4 ..................................................
5 ..f...............................................
6 .........h........................................
7 ..................................................
8 ..................................................
9 ..................................................
0 ..................................................
1 ..................................................
2 ..................................................
3 ................................h.................
4 ..................................................
5 ..................................................
6 ..................................................
7 .....................f.........t..................
8 ..................................................
9 .................................................h

Turn = 124.
  01234567890123456789012345678901234567890123456789
0 ...........................r......................
1 ..................................................
2 ..................................................
3 ..................................................
4 ..................................................
5 ..................................................
6 ......................................r...........
7 .............t...............................f....
8 ..................................................
9 ..................................................
0 ..................................................
1 ..................................................
2 ..................................................
3 ...........................................r...t..
4 ..................................................
5 ..................................................
6 ..................................................
7 ......t...........................................
8 ..................................................
9 ..................................................
0 ..................................................
1 ..................................................
2 ..................................................
3 ..................................................
4 ..................................................
5 ....................f..................f..........
6 ..................................................
7 ...............................r..................
8 .................................................r
9 ............................r.....................
0 ............................r.....................
1 ..................................................
2 ..................................................
3 ..................................................
4 ..................................................
5 ..f...............................................
6 ..................................................
7 ..................................................
8 ..................................................
9 ..................................................
0 ..................................................
1 ..................................................
2 ..................................................
3 .................................................h
4 ..................................................
5 ..................................................
6 ..................................................
7 .....................f.........t..................
8 ..................................................
9 ..................................................

Turn = 248.
  01234567890123456789012345678901234567890123456789
0 ..................................................
1 ..................................................
2 ..................................................
3 ..................................................
4 ..................................................
5 ..................................................
6 ..................................................
7 .............t...............................f....
8 ..................................................
9 ..................................................
0 ..................................................
1 ..................................................
2 ..................................................
3 ..............................................tt..
4 r.................................................
5 ..................................................
6 ..................................................
7 ......t...........................................
8 ..................................................
9 ..........................r.......................
0 ..........................r.......................
1 ..................................................
2 r.................................................
3 ..................................................
4 ..................................................
5 ....................f..................f..........
6 ..................................................
7 ..................................................
8 ........................r.........................
9 ........................r.........................
0 ..................................................
1 ..................................................
2 ..................................................
3 ..................................................
4 ..................................................
5 ..f...............................................
6 ..................................................
7 ..................................................
8 ..................................................
9 ..................................................
0 ..................................................
1 ..................................................
2 ..................................................
3 ..................................................
4 ..................................................
5 ..................................................
6 ..................................................
7 .....................f.........t..................
8 .................................................r
9 ..................................................

Turn = 372.
  01234567890123456789012345678901234567890123456789
0 ........................r.........................
1 ..................................................
2 ..................................................
3 ..................................................
4 ..................................................
5 ..................................................
6 ..................................................
7 .............t...............................f....
8 ..................................................
9 ..................................................
0 ..................................................
1 .................................................r
2 ..................................................
3 ..............................................tt.r
4 ..................................................
5 ..................................................
6 ..................................................
7 ......t...........................................
8 ..................................................
9 ..................................................
0 ...r..............................................
1 ..................................................
2 ..................................................
3 ..................................................
4 r.................................................
5 r...................f..................f..........
6 ..................................................
7 ..................................................
8 ..................................................
9 ..................................................
0 ..................................................
1 ..................................................
2 ..................................................
3 ..................................................
4 ..................................................
5 ..f...............................................
6 ..................................................
7 ......................r...........................
8 ..................................................
9 ..................................................
0 ..................................................
1 ..................................................
2 ..................................................
3 ..................................................
4 ..................................................
5 ..................................................
6 ..................................................
7 .....................f.........t..................
8 ..................................................
9 ..................................................

Turn = 496.
  01234567890123456789012345678901234567890123456789
0 ..................................................
1 ..................................................
2 .................................................r
3 ..................................................
4 ..................................................
5 ..................................................
6 ..................................................
7 .............t....................................
8 ..................................................
9 .................................................r
0 ..................................................
1 ..................................................
2 ..................................................
3 ..............................................tt..
4 ..................................................
5 ..................................................
6 ..................................................
7 ......t...........................................
8 ..................................................
9 ..................................................
0 ..................................................
1 ..................................................
2 ..................................................
3 ..................................................
4 ................................rr................
5 ....................f..................f..........
6 ..................................................
7 ..................................................
8 ..................................................
9 ..................................................
0 ..................................................
1 ..................................................
2 ..................................................
3 r................................r................
4 ..................................................
5 ..f...............................................
6 ..................................................
7 ..................................................
8 ..................................................
9 ..................................................
0 ..................................................
1 r.................................................
2 ..................................................
3 ..................................................
4 ..................................................
5 ..................................................
6 ..................................................
7 .....................f.........t..................
8 ..................................................
9 ................r.................................

Turn = 620.
  01234567890123456789012345678901234567890123456789
0 ..................................................
1 ..................................................
2 ..................................................
3 ..................................................
4 .................................................r
5 ..................................................
6 ..................................................
7 .............t....................................
8 r.................................................
9 .................................................r
0 ..................................................
1 ..................................................
2 ..................................................
3 ..............................................tt..
4 ..................................................
5 ......................................r...........
6 ..................................................
7 ......t...........................................
8 ..................................................
9 ..................................................
0 ..................................................
1 ...................................r..............
2 ..................................................
3 ..................................................
4 ..................................................
5 ....................f..................f..........
6 ..................................................
7 ..................................................
8 ..................................................
9 ..................................................
0 ..................................................
1 ..................................................
2 ..................................................
3 ..................................................
4 ..................................................
5 ..f...............................................
6 ..................................................
7 ..................................................
8 ..................................................
9 ..................................................
0 ..................................................
1 ..................................................
2 ..................................................
3 ..................................................
4 ..................................................
5 ..................................................
6 ..................................................
7 .....................f.........tt.................
8 ..................................................
9 .............r..............r.....................

Turn = 744.
  01234567890123456789012345678901234567890123456789
0 ..r............r..................................
1 ..................................................
2 ..................................................
3 ..................................................
4 ..................................................
5 ..................................................
6 ..................................................
7 .............t....................................
8 ..................................................
9 ..................................................
0 ..................................................
1 ..................................................
2 ..................................................
3 ..............................................tt..
4 ..................................................
5 ..................................................
6 ..................................................
7 ......t...........................................
8 ..................................................
9 ..................................................
0 ..................................................
1 ..................................................
2 .............................................r....
3 ..................................................
4 .................................................r
5 ....................f..................f..........
6 ..................................................
7 ..................................................
8 ..................................................
9 ..................................................
0 ..................................................
1 ..................................................
2 ..................................................
3 r.................................................
4 ..................................................
5 ..f...............................................
6 ..................................................
7 ..................................................
8 ..................................................
9 ..................................................
0 ..................................................
1 ..................................................
2 ..................................................
3 ..................................................
4 ..................................................
5 ..................................................
6 ..................................................
7 .....................f.........tt.................
8 ...............................t..................
9 .............................r....................

Turn = 868.
  01234567890123456789012345678901234567890123456789
0 rr................................................
1 r.................................................
2 ..................................................
3 ....r.............................................
4 ..................................................
5 ..................................................
6 ..................................................
7 .............t....................................
8 ..................................................
9 ..................................................
0 ..................................................
1 ..................................................
2 ..................................................
3 ..............................................tt..
4 ..................................................
5 ..................................................
6 ......t...........................................
7 ......t...........................................
8 ..................................................
9 ..................................................
0 ..................................................
1 ..................................................
2 ..................................................
3 ..................................................
4 ..................................................
5 ....................f..................f..........
6 ..................................................
7 ..................................................
8 ..................................................
9 ..................................................
0 ..................................................
1 ..................................................
2 ..................................................
3 ..................................................
4 ..................................................
5 ..f...............................................
6 ..................................................
7 ..................................................
8 ..................................................
9 ..................................................
0 ..................................................
1 ..................................................
2 ..................................................
3 ..................................................
4 ..................................................
5 ..................................................
6 ..................................................
7 .....................f.........tt.................
8 ...............................t..................
9 .................................................r

Turn = 992.
  01234567890123456789012345678901234567890123456789
0 ......................r.r.........................
1 ..................................................
2 .......................r..........................
3 ..................................................
4 ..................................................
5 ..................................................
6 ..................................................
7 .............t....................................
8 ..................................................
9 ..................................................
0 ..................................................
1 ..................................................
2 ..................................................
3 ..............................................tt..
4 ..................................................
5 ..................................................
6 ......t...........................................
7 ......t...........................................
8 ..................................................
9 ..................................................
0 ..................................................
1 r.................................................
2 ..................................................
3 r.................................................
4 ..................................................
5 ....................f..................f..........
6 ..................................................
7 ..................................................
8 ..................................................
9 ..................................................
0 ..................................................
1 ..................................................
2 ..................................................
3 ..................................................
4 ..................................................
5 ..f...............................................
6 ..................................................
7 ..................................................
8 ..................................................
9 ..................................................
0 ..................................................
1 ..................................................
2 ..................................................
3 ..................................................
4 ..................................................
5 ..................................................
6 ..................................................
7 .....................f.........tt.................
8 ...............................t..................
9 ..................................................

Turn = 1116.
  01234567890123456789012345678901234567890123456789
0 ..................................................
1 ..................................................
2 .................................................r
3 ..................................................
4 ..................................................
5 ..................................................
6 ..................................................
7 .............t....................................
8 ..................................................
9 ..................................................
0 ..................................................
1 ..................................................
2 ..................................................
3 ..............................................tt..
4 ..................................................
5 ..................................................
6 ......t...........................................
7 ......t...........................................
8 ..................................................
9 ..................................................
0 ..................................................
1 ..................................................
2 ..................................................
3 ..................................................
4 ..................................................
5 ....................f..................f..........
6 ..................................................
7 ..................................................
8 ..................................................
9 ..................................................
0 ..................................................
1 ..................................................
2 ..................................................
3 ..................................................
4 ..................................................
5 ..f...............................................
6 ..................................................
7 ................r.................................
8 ..................................................
9 ..................................................
0 ..................................................
1 ..................................................
2 ..................................................
3 ..................................................
4 ..................................................
5 rr................................................
6 ..................................................
7 .....................f.........tt.................
8 ....r.............................................
9 ....r.............................................

*** Darwin 26x32 ***
Turn = 0.
  01234567890123456789012345678901
0 ................................
1 ................................
2 ................................
3 ................................
4 ................................
5 .....h..........................
6 ..........................r.....
7 ................................
8 ................................
9 ................................
0 ................................
1 ......t.........................
2 ................................
3 ................................
4 .....t..........................
5 ................................
6 ................................
7 ................................
8 ................................
9 ................................
0 .....t..........................
1 ........................h.......
2 ................................
3 ................................
4 ................................
5 ................................

Turn = 1.
  01234567890123456789012345678901
0 ................................
1 ................................
2 ................................
3 ................................
4 .....h..........................
5 ................................
6 ................................
7 ..........................r.....
8 ................................
9 ................................
0 ................................
1 ......t.........................
2 ................................
3 ................................
4 .....t..........................
5 ................................
6 ................................
7 ................................
8 ................................
9 ................................
0 .....t..........................
1 .........................h......
2 ................................
3 ................................
4 ................................
5 ................................

Turn = 2.
  01234567890123456789012345678901
0 ................................
1 ................................
2 ................................
3 .....h..........................
4 ................................
5 ................................
6 ................................
7 ................................
8 ..........................r.....
9 ................................
0 ................................
1 ......t.........................
2 ................................
3 ................................
4 .....t..........................
5 ................................
6 ................................
7 ................................
8 ................................
9 ................................
0 .....t..........................
1 ..........................h.....
2 ................................
3 ................................
4 ................................
5 ................................

Turn = 3.
  01234567890123456789012345678901
0 ................................
1 ................................
2 .....h..........................
3 ................................
4 ................................
5 ................................
6 ................................
7 ................................
8 ................................
9 ..........................r.....
0 ................................
1 ......t.........................
2 ................................
3 ................................
4 .....t..........................
5 ................................
6 ................................
7 ................................
8 ................................
9 ................................
0 .....t..........................
1 ...........................h....
2 ................................
3 ................................
4 ................................
5 ................................

Turn = 4.
  01234567890123456789012345678901
0 ................................
1 .....h..........................
2 ................................
3 ................................
4 ................................
5 ................................
6 ................................
7 ................................
8 ................................
9 ................................
0 ..........................r.....
1 ......t.........................
2 ................................
3 ................................
4 .....t..........................
5 ................................
6 ................................
7 ................................
8 ................................
9 ................................
0 .....t..........................
1 ............................h...
2 ................................
3 ................................
4 ................................
5 ................................

Turn = 5.
  01234567890123456789012345678901
0 .....h..........................
1 ................................
2 ................................
3 ................................
4 ................................
5 ................................
6 ................................
7 ................................
8 ................................
9 ................................
0 ................................
1 ......t...................r.....
2 ................................
3 ................................
4 .....t..........................
5 ................................
6 ................................
7 ................................
8 ................................
9 ................................
0 .....t..........................
1 .............................h..
2 ................................
3 ................................
4 ................................
5 ................................

Turn = 6.
  01234567890123456789012345678901
0 .....h..........................
1 ................................
2 ................................
3 ................................
4 ................................
5 ................................
6 ................................
7 ................................
8 ................................
9 ................................
0 ................................
1 ......t.........................
2 ..........................r.....
3 ................................
4 .....t..........................
5 ................................
6 ................................
7 ................................
8 ................................
9 ................................
0 .....t..........................
1 ..............................h.
2 ................................
3 ................................
4 ................................
5 ................................

Turn = 7.
  01234567890123456789012345678901
0 .....h..........................
1 ................................
2 ................................
3 ................................
4 ................................
5 ................................
6 ................................
7 ................................
8 ................................
9 ................................
0 ................................
1 ......t.........................
2 ................................
3 ..........................r.....
4 .....t..........................
5 ................................
6 ................................
7 ................................
8 ................................
9 ................................
0 .....t..........................
1 ...............................h
2 ................................
3 ................................
4 ................................
5 ................................

Turn = 8.
  01234567890123456789012345678901
0 .....h..........................
1 ................................
2 ................................
3 ................................
4 ................................
5 ................................
6 ................................
7 ................................
8 ................................
9 ................................
0 ................................
1 ......t.........................
2 ................................
3 ................................
4 .....t....................r.....
5 ................................
6 ................................
7 ................................
8 ................................
9 ................................
0 .....t..........................
1 ...............................h
2 ................................
3 ................................
4 ................................
5 ................................

Turn = 9.
  01234567890123456789012345678901
0 .....h..........................
1 ................................
2 ................................
3 ................................
4 ................................
5 ................................
6 ................................
7 ................................
8 ................................
9 ................................
0 ................................
1 ......t.........................
2 ................................
3 ................................
4 .....t..........................
5 ..........................r.....
6 ................................
7 ................................
8 ................................
9 ................................
0 .....t..........................
1 ...............................h
2 ................................
3 ................................
4 ................................
5 ................................

Turn = 10.
  01234567890123456789012345678901
0 .....h..........................
1 ................................
2 ................................
3 ................................
4 ................................
5 ................................
6 ................................
7 ................................
8 ................................
9 ................................
0 ................................
1 ......t.........................
2 ................................
3 ................................
4 .....t..........................
5 ................................
6 ..........................r.....
7 ................................
8 ................................
9 ................................
0 .....t..........................
1 ...............................h
2 ................................
3 ................................
4 ................................
5 ................................

Turn = 11.
  01234567890123456789012345678901
0 .....h..........................
1 ................................
2 ................................
3 ................................
4 ................................
5 ................................
6 ................................
7 ................................
8 ................................
9 ................................
0 ................................
1 ......t.........................
2 ................................
3 ................................
4 .....t..........................
5 ................................
6 ................................
7 ..........................r.....
8 ................................
9 ................................
0 .....t..........................
1 ...............................h
2 ................................
3 ................................
4 ................................
5 ................................

Turn = 12.
  01234567890123456789012345678901
0 .....h..........................
1 ................................
2 ................................
3 ................................
4 ................................
5 ................................
6 ................................
7 ................................
8 ................................
9 ................................
0 ................................
1 ......t.........................
2 ................................
3 ................................
4 .....t..........................
5 ................................
6 ................................
7 ................................
8 ..........................r.....
9 ................................
0 .....t..........................
1 ...............................h
2 ................................
3 ................................
4 ................................
5 ................................

Turn = 13.
  01234567890123456789012345678901
0 .....h..........................
1 ................................
2 ................................
3 ................................
4 ................................
5 ................................
6 ................................
7 ................................
8 ................................
9 ................................
0 ................................
1 ......t.........................
2 ................................
3 ................................
4 .....t..........................
5 ................................
6 ................................
7 ................................
8 ................................
9 ..........................r.....
0 .....t..........................
1 ...............................h
2 ................................
3 ................................
4 ................................
5 ................................

Turn = 14.
  01234567890123456789012345678901
0 .....h..........................
1 ................................
2 ................................
3 ................................
4 ................................
5 ................................
6 ................................
7 ................................
8 ................................
9 ................................
0 ................................
1 ......t.........................
2 ................................
3 ................................
4 .....t..........................
5 ................................
6 ................................
7 ................................
8 ................................
9 ................................
0 .....t....................r.....
1 ...............................h
2 ................................
3 ................................
4 ................................
5 ................................

Turn = 15.
  01234567890123456789012345678901
0 .....h..........................
1 ................................
2 ................................
3 ................................
4 ................................
5 ................................
6 ................................
7 ................................
8 ................................
9 ................................
0 ................................
1 ......t.........................
2 ................................
3 ................................
4 .....t..........................
5 ................................
6 ................................
7 ................................
8 ................................
9 ................................
0 .....t..........................
1 ..........................r....h
2 ................................
3 ................................
4 ................................
5 ................................

Turn = 16.
  01234567890123456789012345678901
0 .....h..........................
1 ................................
2 ................................
3 ................................
4 ................................
5 ................................
6 ................................
7 ................................
8 ................................
9 ................................
0 ................................
1 ......t.........................
2 ................................
3 ................................
4 .....t..........................
5 ................................
6 ................................
7 ................................
8 ................................
9 ................................
0 .....t..........................
1 ...............................h
2 ..........................r.....
3 ................................
4 ................................
5 ................................

Turn = 17.
  01234567890123456789012345678901
0 .....h..........................
1 ................................
2 ................................
3 ................................
4 ................................
5 ................................
6 ................................
7 ................................
8 ................................
9 ................................
0 ................................
1 ......t.........................
2 ................................
3 ................................
4 .....t..........................
5 ................................
6 ................................
7 ................................
8 ................................
9 ................................
0 .....t..........................
1 ...............................h
2 ................................
3 ..........................r.....
4 ................................
5 ................................

Turn = 18.
  01234567890123456789012345678901
0 .....h..........................
1 ................................
2 ................................
3 ................................
4 ................................
5 ................................
6 ................................
7 ................................
8 ................................
9 ................................
0 ................................
1 ......t.........................
2 ................................
3 ................................
4 .....t..........................
5 ................................
6 ................................
7 ................................
8 ................................
9 ................................
0 .....t..........................
1 ...............................h
2 ................................
3 ................................
4 ..........................r.....
5 ................................

Turn = 19.
  01234567890123456789012345678901
0 .....h..........................
1 ................................
2 ................................
3 ................................
4 ................................
5 ................................
6 ................................
7 ................................
8 ................................
9 ................................
0 ................................
1 ......t.........................
2 ................................
3 ................................
4 .....t..........................
5 ................................
6 ................................
7 ................................
8 ................................
9 ................................
0 .....t..........................
1 ...............................h
2 ................................
3 ................................
4 ................................
5 ..........................r.....

Turn = 20.
  01234567890123456789012345678901
0 .....h..........................
1 ................................
2 ................................
3 ................................
4 ................................
5 ................................
6 ................................
7 ................................
8 ................................
9 ................................
0 ................................
1 ......t.........................
2 ................................
3 ................................
4 .....t..........................
5 ................................
6 ................................
7 ................................
8 ................................
9 ................................
0 .....t..........................
1 ...............................h
2 ................................
3 ................................
4 ................................
5 ..........................r.....

Turn = 21.
  01234567890123456789012345678901
0 .....h..........................
1 ................................
2 ................................
3 ................................
4 ................................
5 ................................
6 ................................
7 ................................
8 ................................
9 ................................
0 ................................
1 ......t.........................
2 ................................
3 ................................
4 .....t..........................
5 ................................
6 ................................
7 ................................
8 ................................
9 ................................
0 .....t..........................
1 ...............................h
2 ................................
3 ................................
4 ................................
5 .........................r......

Turn = 22.
  01234567890123456789012345678901
0 .....h..........................
1 ................................
2 ................................
3 ................................
4 ................................
5 ................................
6 ................................
7 ................................
8 ................................
9 ................................
0 ................................
1 ......t.........................
2 ................................
3 ................................
4 .....t..........................
5 ................................
6 ................................
7 ................................
8 ................................
9 ................................
0 .....t..........................
1 ...............................h
2 ................................
3 ................................
4 ................................
5 ........................r.......

Turn = 23.
  01234567890123456789012345678901
0 .....h..........................
1 ................................
2 ................................
3 ................................
4 ................................
5 ................................
6 ................................
7 ................................
8 ................................
9 ................................
0 ................................
1 ......t.........................
2 ................................
3 ................................
4 .....t..........................
5 ................................
6 ................................
7 ................................
8 ................................
9 ................................
0 .....t..........................
1 ...............................h
2 ................................
3 ................................
4 ................................
5 .......................r........

Turn = 24.
  01234567890123456789012345678901
0 .....h..........................
1 ................................
2 ................................
3 ................................
4 ................................
5 ................................
6 ................................
7 ................................
8 ................................
9 ................................
0 ................................
1 ......t.........................
2 ................................
3 ................................
4 .....t..........................
5 ................................
6 ................................
7 ................................
8 ................................
9 ................................
0 .....t..........................
1 ...............................h
2 ................................
3 ................................
4 ................................
5 ......................r.........

Turn = 25.
  01234567890123456789012345678901
0 .....h..........................
1 ................................
2 ................................
3 ................................
4 ................................
5 ................................
6 ................................
7 ................................
8 ................................
9 ................................
0 ................................
1 ......t.........................
2 ................................
3 ................................
4 .....t..........................
5 ................................
6 ................................
7 ................................
8 ................................
9 ................................
0 .....t..........................
1 ...............................h
2 ................................
3 ................................
4 ................................
5 .....................r..........

Turn = 26.
  01234567890123456789012345678901
0 .....h..........................
1 ................................
2 ................................
3 ................................
4 ................................
5 ................................
6 ................................
7 ................................
8 ................................
9 ................................
0 ................................
1 ......t.........................
2 ................................
3 ................................
4 .....t..........................
5 ................................
6 ................................
7 ................................
8 ................................
9 ................................
0 .....t..........................
1 ...............................h
2 ................................
3 ................................
4 ................................
5 ....................r...........

Turn = 27.
  01234567890123456789012345678901
0 .....h..........................
1 ................................
2 ................................
3 ................................
4 ................................
5 ................................
6 ................................
7 ................................
8 ................................
9 ................................
0 ................................
1 ......t.........................
2 ................................
3 ................................
4 .....t..........................
5 ................................
6 ................................
7 ................................
8 ................................
9 ................................
0 .....t..........................
1 ...............................h
2 ................................
3 ................................
4 ................................
5 ...................r............

Turn = 28.
  01234567890123456789012345678901
0 .....h..........................
1 ................................
2 ................................
3 ................................
4 ................................
5 ................................
6 ................................
7 ................................
8 ................................
9 ................................
0 ................................
1 ......t.........................
2 ................................
3 ................................
4 .....t..........................
5 ................................
6 ................................
7 ................................
8 ................................
9 ................................
0 .....t..........................
1 ...............................h
2 ................................
3 ................................
4 ................................
5 ..................r.............

Turn = 29.
  01234567890123456789012345678901
0 .....h..........................
1 ................................
2 ................................
3 ................................
4 ................................
5 ................................
6 ................................
7 ................................
8 ................................
9 ................................
0 ................................
1 ......t.........................
2 ................................
3 ................................
4 .....t..........................
5 ................................
6 ................................
7 ................................
8 ................................
9 ................................
0 .....t..........................
1 ...............................h
2 ................................
3 ................................
4 ................................
5 .................r..............

Turn = 30.
  01234567890123456789012345678901
0 .....h..........................
1 ................................
2 ................................
3 ................................
4 ................................
5 ................................
6 ................................
7 ................................
8 ................................
9 ................................
0 ................................
1 ......t.........................
2 ................................
3 ................................
4 .....t..........................
5 ................................
6 ................................
7 ................................
8 ................................
9 ................................
0 .....t..........................
1 ...............................h
2 ................................
3 ................................
4 ................................
5 ................r...............

Turn = 31.
  01234567890123456789012345678901
0 .....h..........................
1 ................................
2 ................................
3 ................................
4 ................................
5 ................................
6 ................................
7 ................................
8 ................................
9 ................................
0 ................................
1 ......t.........................
2 ................................
3 ................................
4 .....t..........................
5 ................................
6 ................................
7 ................................
8 ................................
9 ................................
0 .....t..........................
1 ...............................h
2 ................................
3 ................................
4 ................................
5 ...............r................

Turn = 32.
  01234567890123456789012345678901
0 .....h..........................
1 ................................
2 ................................
3 ................................
4 ................................
5 ................................
6 ................................
7 ................................
8 ................................
9 ................................
0 ................................
1 ......t.........................
2 ................................
3 ................................
4 .....t..........................
5 ................................
6 ................................
7 ................................
8 ................................
9 ................................
0 .....t..........................
1 ...............................h
2 ................................
3 ................................
4 ................................
5 ..............r.................

Turn = 33.
  01234567890123456789012345678901
0 .....h..........................
1 ................................
2 ................................
3 ................................
4 ................................
5 ................................
6 ................................
7 ................................
8 ................................
9 ................................
0 ................................
1 ......t.........................
2 ................................
3 ................................
4 .....t..........................
5 ................................
6 ................................
7 ................................
8 ................................
9 ................................
0 .....t..........................
1 ...............................h
2 ................................
3 ................................
4 ................................
5 .............r..................

Turn = 34.
  01234567890123456789012345678901
0 .....h..........................
1 ................................
2 ................................
3 ................................
4 ................................
5 ................................
6 ................................
7 ................................
8 ................................
9 ................................
0 ................................
1 ......t.........................
2 ................................
3 ................................
4 .....t..........................
5 ................................
6 ................................
7 ................................
8 ................................
9 ................................
0 .....t..........................
1 ...............................h
2 ................................
3 ................................
4 ................................
5 ............r...................

Turn = 35.
  01234567890123456789012345678901
0 .....h..........................
1 ................................
2 ................................
3 ................................
4 ................................
5 ................................
6 ................................
7 ................................
8 ................................
9 ................................
0 ................................
1 ......t.........................
2 ................................
3 ................................
4 .....t..........................
5 ................................
6 ................................
7 ................................
8 ................................
9 ................................
0 .....t..........................
1 ...............................h
2 ................................
3 ................................
4 ................................
5 ...........r....................

Turn = 36.
  01234567890123456789012345678901
0 .....h..........................
1 ................................
2 ................................
3 ................................
4 ................................
5 ................................
6 ................................
7 ................................
8 ................................
9 ................................
0 ................................
1 ......t.........................
2 ................................
3 ................................
4 .....t..........................
5 ................................
6 ................................
7 ................................
8 ................................
9 ................................
0 .....t..........................
1 ...............................h
2 ................................
3 ................................
4 ................................
5 ..........r.....................

Turn = 37.
  01234567890123456789012345678901
0 .....h..........................
1 ................................
2 ................................
3 ................................
4 ................................
5 ................................
6 ................................
7 ................................
8 ................................
9 ................................
0 ................................
1 ......t.........................
2 ................................
3 ................................
4 .....t..........................
5 ................................
6 ................................
7 ................................
8 ................................
9 ................................
0 .....t..........................
1 ...............................h
2 ................................
3 ................................
4 ................................
5 .........r......................

*** Darwin 20x10 ***
Turn = 0.
  0123456789
0 ..........
1 ..........
2 .........f
3 ..........
4 ..........
5 ...h......
6 ..........
7 ..........
8 ..........
9 ..........
0 ..........
1 ..........
2 ..........
3 ....r.....
4 ..........
5 ..........
6 ..........
7 ..........
8 ..........
9 ..........

Turn = 1.
  0123456789
0 ..........
1 ..........
2 .........f
3 ..........
4 ..........
5 ..........
6 ...h......
7 ..........
8 ..........
9 ..........
0 ..........
1 ..........
2 ..........
3 .....r....
4 ..........
5 ..........
6 ..........
7 ..........
8 ..........
9 ..........

Turn = 2.
  0123456789
0 ..........
1 ..........
2 .........f
3 ..........
4 ..........
5 ..........
6 ..........
7 ...h......
8 ..........
9 ..........
0 ..........
1 ..........
2 ..........
3 ......r...
4 ..........
5 ..........
6 ..........
7 ..........
8 ..........
9 ..........

Turn = 3.
  0123456789
0 ..........
1 ..........
2 .........f
3 ..........
4 ..........
5 ..........
6 ..........
7 ..........
8 ...h......
9 ..........
0 ..........
1 ..........
2 ..........
3 .......r..
4 ..........
5 ..........
6 ..........
7 ..........
8 ..........
9 ..........

Turn = 4.
  0123456789
0 ..........
1 ..........
2 .........f
3 ..........
4 ..........
5 ..........
6 ..........
7 ..........
8 ..........
9 ...h......
0 ..........
1 ..........
2 ..........
3 ........r.
4 ..........
5 ..........
6 ..........
7 ..........
8 ..........
9 ..........

Turn = 5.
  0123456789
0 ..........
1 ..........
2 .........f
3 ..........
4 ..........
5 ..........
6 ..........
7 ..........
8 ..........
9 ..........
0 ...h......
1 ..........
2 ..........
3 .........r
4 ..........
5 ..........
6 ..........
7 ..........
8 ..........
9 ..........

Turn = 6.
  0123456789
0 ..........
1 ..........
2 .........f
3 ..........
4 ..........
5 ..........
6 ..........
7 ..........
8 ..........
9 ..........
0 ..........
1 ...h......
2 ..........
3 .........r
4 ..........
5 ..........
6 ..........
7 ..........
8 ..........
9 ..........

Turn = 7.
  0123456789
0 ..........
1 ..........
2 .........f
3 ..........
4 ..........
5 ..........
6 ..........
7 ..........
8 ..........
9 ..........
0 ..........
1 ..........
2 ...h......
3 ..........
4 .........r
5 ..........
6 ..........
7 ..........
8 ..........
9 ..........

Turn = 8.
  0123456789
0 ..........
1 ..........
2 .........f
3 ..........
4 ..........
5 ..........
6 ..........
7 ..........
8 ..........
9 ..........
0 ..........
1 ..........
2 ..........
3 ...h......
4 ..........
5 .........r
6 ..........
7 ..........
8 ..........
9 ..........

Turn = 9.
  0123456789
0 ..........
1 ..........
2 .........f
3 ..........
4 ..........
5 ..........
6 ..........
7 ..........
8 ..........
9 ..........
0 ..........
1 ..........
2 ..........
3 ..........
4 ...h......
5 ..........
6 .........r
7 ..........
8 ..........
9 ..........

Turn = 10.
  0123456789
0 ..........
1 ..........
2 .........f
3 ..........
4 ..........
5 ..........
6 ..........
7 ..........
8 ..........
9 ..........
0 ..........
1 ..........
2 ..........
3 ..........
4 ..........
5 ...h......
6 ..........
7 .........r
8 ..........
9 ..........

Turn = 11.
  0123456789
0 ..........
1 ..........
2 .........f
3 ..........
4 ..........
5 ..........
6 ..........
7 ..........
8 ..........
9 ..........
0 ..........
1 ..........
2 ..........
3 ..........
4 ..........
5 ..........
6 ...h......
7 ..........
8 .........r
9 ..........

Turn = 12.
  0123456789
0 ..........
1 ..........
2 .........f
3 ..........
4 ..........
5 ..........
6 ..........
7 ..........
8 ..........
9 ..........
0 ..........
1 ..........
2 ..........
3 ..........
4 ..........
5 ..........
6 ..........
7 ...h......
8 ..........
9 .........r

Turn = 13.
  0123456789
0 ..........
1 ..........
2 .........f
3 ..........
4 ..........
5 ..........
6 ..........
7 ..........
8 ..........
9 ..........
0 ..........
1 ..........
2 ..........
3 ..........
4 ..........
5 ..........
6 ..........
7 ..........
8 ...h......
9 .........r

Turn = 14.
  0123456789
0 ..........
1 ..........
2 .........f
3 ..........
4 ..........
5 ..........
6 ..........
7 ..........
8 ..........
9 ..........
0 ..........
1 ..........
2 ..........
3 ..........
4 ..........
5 ..........
6 ..........
7 ..........
8 ..........
9 ...h.....r

Turn = 15.
  0123456789
0 ..........
1 ..........
2 .........f
3 ..........
4 ..........
5 ..........
6 ..........
7 ..........
8 ..........
9 ..........
0 ..........
1 ..........
2 ..........
3 ..........
4 ..........
5 ..........
6 ..........
7 ..........
8 ..........
9 ...h.....r

Turn = 16.
  0123456789
0 ..........
1 ..........
2 .........f
3 ..........
4 ..........
5 ..........
6 ..........
7 ..........
8 ..........
9 ..........
0 ..........
1 ..........
2 ..........
3 ..........
4 ..........
5 ..........
6 ..........
7 ..........
8 ..........
9 ...h....r.

Turn = 17.
  0123456789
0 ..........
1 ..........
2 .........f
3 ..........
4 ..........
5 ..........
6 ..........
7 ..........
8 ..........
9 ..........
0 ..........
1 ..........
2 ..........
3 ..........
4 ..........
5 ..........
6 ..........
7 ..........
8 ..........
9 ...h...r..

Turn = 18.
  0123456789
0 ..........
1 ..........
2 .........f
3 ..........
4 ..........
5 ..........
6 ..........
7 ..........
8 ..........
9 ..........
0 ..........
1 ..........
2 ..........
3 ..........
4 ..........
5 ..........
6 ..........
7 ..........
8 ..........
9 ...h..r...

Turn = 19.
  0123456789
0 ..........
1 ..........
2 .........f
3 ..........
4 ..........
5 ..........
6 ..........
7 ..........
8 ..........
9 ..........
0 ..........
1 ..........
2 ..........
3 ..........
4 ..........
5 ..........
6 ..........
7 ..........
8 ..........
9 ...h.r....

Turn = 20.
  0123456789
0 ..........
1 ..........
2 .........f
3 ..........
4 ..........
5 ..........
6 ..........
7 ..........
8 ..........
9 ..........
0 ..........
1 ..........
2 ..........
3 ..........
4 ..........
5 ..........
6 ..........
7 ..........
8 ..........
9 ...hr.....

Turn = 21.
  0123456789
0 ..........
1 ..........
2 .........f
3 ..........
4 ..........
5 ..........
6 ..........
7 ..........
8 ..........
9 ..........
0 ..........
1 ..........
2 ..........
3 ..........
4 ..........
5 ..........
6 ..........
7 ..........
8 ..........
9 ...rr.....

Turn = 22.
  0123456789
0 ..........
1 ..........
2 .........f
3 ..........
4 ..........
5 ..........
6 ..........
7 ..........
8 ..........
9 ..........
0 ..........
1 ..........
2 ..........
3 ..........
4 ..........
5 ..........
6 ..........
7 ..........
8 ..........
9 ...rr.....

Turn = 23.
  0123456789
0 ..........
1 ..........
2 .........f
3 ..........
4 ..........
5 ..........
6 ..........
7 ..........
8 ..........
9 ..........
0 ..........
1 ..........
2 ..........
3 ..........
4 ..........
5 ..........
6 ..........
7 ..........
8 ....r.....
9 ..r.......

Turn = 24.
  0123456789
0 ..........
1 ..........
2 .........f
3 ..........
4 ..........
5 ..........
6 ..........
7 ..........
8 ..........
9 ..........
0 ..........
1 ..........
2 ..........
3 ..........
4 ..........
5 ..........
6 ..........
7 ....r.....
8 ..........
9 .r........

*** Darwin 1x1 ***
Turn = 0.
  0
0 f

Turn = 1.
  0
0 f

Turn = 2.
  0
0 f

Turn = 3.
  0
0 f

Turn = 4.
  0
0 f

Turn = 5.
  0
0 f

Turn = 6.
  0
0 f

Turn = 7.
  0
0 f

Turn = 8.
  0
0 f

Turn = 9.
  0
0 f

Turn = 10.
  0
0 f

Turn = 11.
  0
0 f

Turn = 12.
  0
0 f

Turn = 13.
  0
0 f
