*** Darwin 25x25 ***
Turn = 0.
  0123456789012345678901234
0 .................r.......
1 .h.......................
2 .........................
3 .....f.........t.........
4 .f.......................
5 .........................
6 ......................r..
7 .........................
8 .........................
9 .......................h.
0 ..f......................
1 ........r................
2 ......................h..
3 h........................
4 .........................
5 h..........r.............
6 ......................f..
7 ..f......................
8 .....h...................
9 .....h...................
0 ...............f.........
1 .........................
2 ................thr......
3 .........................
4 ......r........h....tr...

Turn = 2.
  0123456789012345678901234
0 .h.................r.....
1 .........................
2 .........................
3 .....f.........t.........
4 .f.......................
5 .........................
6 ........................r
7 .......................h.
8 .........................
9 .........................
0 ..f...................h..
1 h.........r..............
2 .........................
3 h........................
4 .........................
5 .............r...........
6 .....h................f..
7 ..f..h...................
8 .........................
9 .........................
0 ...............f.h.......
1 .........................
2 ...............ht...r....
3 .........................
4 ........r...........t..r.

Turn = 4.
  0123456789012345678901234
0 .h...................r...
1 .........................
2 .........................
3 .....f.........t.........
4 .f.......................
5 .......................h.
6 .........................
7 ........................r
8 ......................h..
9 h........................
0 ..f......................
1 h...........r............
2 .........................
3 .........................
4 .....h...................
5 .....h.........r.........
6 ......................f..
7 ..f......................
8 .................h.......
9 .........................
0 ...............f.........
1 ...............h.........
2 ................t.....r..
3 .........................
4 ..........r.........t...r

Turn = 6.
  0123456789012345678901234
0 .h.....................r.
1 .........................
2 .........................
3 .....f.........t.......h.
4 .f.......................
5 .........................
6 ......................h..
7 h........................
8 .........................
9 h.......................r
0 ..f......................
1 ..............r..........
2 .....h...................
3 .....h...................
4 .........................
5 .................r.......
6 .................h....f..
7 ..f......................
8 .........................
9 .........................
0 ...............f.........
1 ...............h.........
2 ................t.......r
3 ........................r
4 ............r.......t....

Turn = 8.
  0123456789012345678901234
0 .h......................r
1 .......................h.
2 .........................
3 .....f.........t.........
4 .f....................h..
5 h........................
6 .........................
7 h........................
8 .........................
9 .........................
0 ..f..h...................
1 .....h..........r.......r
2 .........................
3 .........................
4 .................h.......
5 ...................r.....
6 ......................f..
7 ..f......................
8 .........................
9 .........................
0 ...............f.........
1 ...............h.........
2 ................t.......r
3 .........................
4 ..............r.....t...r

Turn = 10.
  0123456789012345678901234
0 .h.....................h.
1 .........................
2 ......................h.r
3 h....f.........t.........
4 .f.......................
5 h........................
6 .........................
7 .........................
8 .....h...................
9 .....h...................
0 ..f......................
1 ..................r......
2 .................h.......
3 ........................r
4 .........................
5 .....................r...
6 ......................f..
7 ..f......................
8 .........................
9 .........................
0 ...............f.........
1 ...............h........r
2 ................t........
3 .........................
4 ................r...t..r.

Turn = 12.
  0123456789012345678901234
0 .h....................hh.
1 h........................
2 .........................
3 h....f.........t.........
4 .f......................r
5 .........................
6 .....h...................
7 .....h...................
8 .........................
9 .........................
0 ..f..............h.......
1 ....................r....
2 .........................
3 .........................
4 .........................
5 .......................rr
6 ......................f..
7 ..f......................
8 .........................
9 ........................r
0 ...............f.........
1 ...............h.........
2 ................t........
3 .........................
4 ..................r.tr...

Turn = 14.
  0123456789012345678901234
0 hh....................hh.
1 h........................
2 .........................
3 .....f.........t.........
4 .f...h...................
5 .....h...................
6 ........................r
7 .........................
8 .................h.......
9 .........................
0 ..f......................
1 ......................r..
2 .........................
3 .........................
4 .........................
5 .........................
6 ......................fr.
7 ..f.....................r
8 ........................r
9 .........................
0 ...............f.........
1 ...............h.........
2 ................t........
3 .........................
4 ...................rrr...

*** Darwin 10x10 ***
Turn = 0.
  0123456789
0 ..........
1 t.........
2 ..........
3 ..........
4 ..........
5 ..........
6 ..........
7 f........f
8 ..........
9 ..r.......

Turn = 2.
  0123456789
0 ..........
1 t.........
2 ..........
3 ..........
4 ..........
5 ..........
6 ..........
7 f........f
8 ..........
9 ....r.....

Turn = 4.
  0123456789
0 ..........
1 t.........
2 ..........
3 ..........
4 ..........
5 ..........
6 ..........
7 f........f
8 ..........
9 ......r...

Turn = 6.
  0123456789
0 ..........
1 t.........
2 ..........
3 ..........
4 ..........
5 ..........
6 ..........
7 f........f
8 ..........
9 ........r.

Turn = 8.
  0123456789
0 ..........
1 t.........
2 ..........
3 ..........
4 ..........
5 ..........
6 ..........
7 f........f
8 ..........
9 .........r

Turn = 10.
  0123456789
0 ..........
1 t.........
2 ..........
3 ..........
4 ..........
5 ..........
6 ..........
7 f........f
8 ..........
9 .........r

Turn = 12.
  0123456789
0 ..........
1 t.........
2 ..........
3 ..........
4 ..........
5 ..........
6 ..........
7 f........f
8 ..........
9 ........r.

Turn = 14.
  0123456789
0 ..........
1 t.........
2 ..........
3 ..........
4 ..........
5 ..........
6 ..........
7 f........f
8 ..........
9 ......r...

Turn = 16.
  0123456789
0 ..........
1 t.........
2 ..........
3 ..........
4 ..........
5 ..........
6 ..........
7 f........f
8 ..........
9 ....r.....

Turn = 18.
  0123456789
0 ..........
1 t.........
2 ..........
3 ..........
4 ..........
5 ..........
6 ..........
7 f........f
8 ..........
9 ..r.......

Turn = 20.
  0123456789
0 ..........
1 t.........
2 ..........
3 ..........
4 ..........
5 ..........
6 ..........
7 f........f
8 ..........
9 r.........

*** Darwin 17x17 ***
Turn = 0.
  01234567890123456
0 ........h........
1 ..............t..
2 ...........r.....
3 .h...............
4 ...............f.
5 .............t...
6 .............r...
7 .................
8 ..r.h............
9 .................
0 .................
1 .................
2 .................
3 .................
4 .................
5 .............f...
6 .................

Turn = 2.
  01234567890123456
0 ........h........
1 .h............t..
2 .............r...
3 .................
4 ...............f.
5 .............t...
6 ....h........t...
7 .................
8 ....r............
9 .................
0 .................
1 .................
2 .................
3 .................
4 .................
5 .............f...
6 .................

Turn = 4.
  01234567890123456
0 .h......h........
1 ..............t..
2 ...............r.
3 .................
4 ....h..........f.
5 .............t...
6 .............t...
7 .................
8 ......r..........
9 .................
0 .................
1 .................
2 .................
3 .................
4 .................
5 .............f...
6 .................

Turn = 6.
  01234567890123456
0 .h......h........
1 ..............t..
2 ....h...........r
3 .................
4 ...............f.
5 .............t...
6 .............t...
7 .................
8 ........r........
9 .................
0 .................
1 .................
2 .................
3 .................
4 .................
5 .............f...
6 .................

Turn = 8.
  01234567890123456
0 .h..h...h........
1 ..............t..
2 .................
3 .................
4 ...............fr
5 .............t...
6 .............t...
7 .................
8 ..........r......
9 .................
0 .................
1 .................
2 .................
3 .................
4 .................
5 .............f...
6 .................

Turn = 10.
  01234567890123456
0 .h..h...h........
1 ..............t..
2 .................
3 .................
4 ...............f.
5 .............t...
6 .............t..r
7 .................
8 ............r....
9 .................
0 .................
1 .................
2 .................
3 .................
4 .................
5 .............f...
6 .................

Turn = 12.
  01234567890123456
0 .h..h...h........
1 ..............t..
2 .................
3 .................
4 ...............f.
5 .............t...
6 .............t...
7 .................
8 ..............r.r
9 .................
0 .................
1 .................
2 .................
3 .................
4 .................
5 .............f...
6 .................

Turn = 14.
  01234567890123456
0 .h..h...h........
1 ..............t..
2 .................
3 .................
4 ...............f.
5 .............t...
6 .............t...
7 .................
8 ................r
9 .................
0 ................r
1 .................
2 .................
3 .................
4 .................
5 .............f...
6 .................

Turn = 16.
  01234567890123456
0 .h..h...h........
1 ..............t..
2 .................
3 .................
4 ...............f.
5 .............t...
6 .............t...
7 ................r
8 .................
9 .................
0 .................
1 .................
2 ................r
3 .................
4 .................
5 .............f...
6 .................

Turn = 18.
  01234567890123456
0 .h..h...h........
1 ..............t..
2 .................
3 .................
4 ...............f.
5 .............t..r
6 .............t...
7 .................
8 .................
9 .................
0 .................
1 .................
2 .................
3 .................
4 ................r
5 .............f...
6 .................

Turn = 20.
  01234567890123456
0 .h..h...h........
1 ..............t..
2 .................
3 ................r
4 ...............f.
5 .............t...
6 .............t...
7 .................
8 .................
9 .................
0 .................
1 .................
2 .................
3 .................
4 .................
5 .............f...
6 ................r

*** Darwin 21x21 ***
Turn = 0.
  012345678901234567890
0 .....................
1 ...................t.
2 ...........r.........
3 .....................
4 f....................
5 .....................
6 .....t...............
7 .....................
8 .....................
9 .....................
0 ......t..............
1 f....................
2 .....................
3 .....................
4 ................h.r..
5 .....................
6 .....................
7 .....................
8 .....................
9 .....................
0 .....................

Turn = 2.
  012345678901234567890
0 .....................
1 ...................t.
2 .............r.......
3 .....................
4 f....................
5 .....................
6 .....t...............
7 .....................
8 .....................
9 .....................
0 ......t..............
1 f....................
2 ................h....
3 .....................
4 ....................r
5 .....................
6 .....................
7 .....................
8 .....................
9 .....................
0 .....................

Turn = 4.
  012345678901234567890
0 .....................
1 ...................t.
2 ...............r.....
3 .....................
4 f....................
5 .....................
6 .....t...............
7 .....................
8 .....................
9 .....................
0 ......t.........h....
1 f....................
2 .....................
3 .....................
4 .....................
5 ....................r
6 .....................
7 .....................
8 .....................
9 .....................
0 .....................

Turn = 6.
  012345678901234567890
0 .....................
1 ...................t.
2 .................r...
3 .....................
4 f....................
5 .....................
6 .....t...............
7 .....................
8 ................h....
9 .....................
0 ......t..............
1 f....................
2 .....................
3 .....................
4 .....................
5 .....................
6 .....................
7 ....................r
8 .....................
9 .....................
0 .....................

Turn = 8.
  012345678901234567890
0 .....................
1 ...................t.
2 ...................r.
3 .....................
4 f....................
5 .....................
6 .....t..........h....
7 .....................
8 .....................
9 .....................
0 ......t..............
1 f....................
2 .....................
3 .....................
4 .....................
5 .....................
6 .....................
7 .....................
8 .....................
9 ....................r
0 .....................

Turn = 10.
  012345678901234567890
0 .....................
1 ...................t.
2 ...................t.
3 .....................
4 f...............h....
5 .....................
6 .....t...............
7 .....................
8 .....................
9 .....................
0 ......t..............
1 f....................
2 .....................
3 .....................
4 .....................
5 .....................
6 .....................
7 .....................
8 .....................
9 .....................
0 ....................r

Turn = 12.
  012345678901234567890
0 .....................
1 ...................t.
2 ................h..t.
3 .....................
4 f....................
5 .....................
6 .....t...............
7 .....................
8 .....................
9 .....................
0 ......t..............
1 f....................
2 .....................
3 .....................
4 .....................
5 .....................
6 .....................
7 .....................
8 .....................
9 .....................
0 ....................r

Turn = 14.
  012345678901234567890
0 ................h....
1 ...................t.
2 ...................t.
3 .....................
4 f....................
5 .....................
6 .....t...............
7 .....................
8 .....................
9 .....................
0 ......t..............
1 f....................
2 .....................
3 .....................
4 .....................
5 .....................
6 .....................
7 .....................
8 .....................
9 .....................
0 ..................r..

Turn = 16.
  012345678901234567890
0 ................h....
1 ...................t.
2 ...................t.
3 .....................
4 f....................
5 .....................
6 .....t...............
7 .....................
8 .....................
9 .....................
0 ......t..............
1 f....................
2 .....................
3 .....................
4 .....................
5 .....................
6 .....................
7 .....................
8 .....................
9 .....................
0 ................r....

Turn = 18.
  012345678901234567890
0 ................h....
1 ...................t.
2 ...................t.
3 .....................
4 f....................
5 .....................
6 .....t...............
7 .....................
8 .....................
9 .....................
0 ......t..............
1 f....................
2 .....................
3 .....................
4 .....................
5 .....................
6 .....................
7 .....................
8 .....................
9 .....................
0 ..............r......

Turn = 20.
  012345678901234567890
0 ................h....
1 ...................t.
2 ...................t.
3 .....................
4 f....................
5 .....................
6 .....t...............
7 .....................
8 .....................
9 .....................
0 ......t..............
1 f....................
2 .....................
3 .....................
4 .....................
5 .....................
6 .....................
7 .....................
8 .....................
9 .....................
0 ............r........

*** Darwin 50x50 ***
Turn = 0.
  01234567890123456789012345678901234567890123456789
0 .................................h................
1 ..................................................
2 ..................h...............................
3 ..................................................
4 ..................................................
5 ..............................................f...
6 ......................f....f......................
7 ..................................................
8 ..................................................
9 .....................t............................
0 ..................................................
1 .......................h..........................
2 ..................................................
3 ...............f..................................
4 .................................h..............f.
5 ........................................f.........
6 ..................................................
7 ................r.................................
8 ..................................................
9 ..................................................
0 .........r....................................t...
1 ..................................................
2 ........................f.......................h.
3 ..................................................
4 ..................................................
5 ..................................................
6 ..................................................
7 ..................................................
8 ..................................................
9 ..................................................
0 ..................................................
1 ..................................................
2 ..................................................
3 ..................................................
4 ..................................................
5 ..................................................
6 ..................................................
7 ..............................................t...
8 ..................................................
9 ..................................................
0 ..................................................
1 ..................................................
2 ......t..........................f................
3 ..................................................
4 ..................................................
5 ..................................................
6 ..................................................
7 ..................................................
8 ..................................................
9 ...................r..............................

Turn = 1.
  01234567890123456789012345678901234567890123456789
0 .................................h................
1 ..................h...............................
2 ..................................................
3 ..................................................
4 ..................................................
5 ..............................................f...
6 ......................f....f......................
7 ..................................................
8 ..................................................
9 .....................t............................
0 .......................h..........................
1 ..................................................
2 ..................................................
3 ...............f.................h................
4 ................................................f.
5 ........................................f.........
6 ..................................................
7 .................r................................
8 ..................................................
9 ..................................................
0 ..........r...................................t...
1 ................................................h.
2 ........................f.........................
3 ..................................................
4 ..................................................
5 ..................................................
6 ..................................................
7 ..................................................
8 ..................................................
9 ..................................................
0 ..................................................
1 ..................................................
2 ..................................................
3 ..................................................
4 ..................................................
5 ..................................................
6 ..................................................
7 ..............................................t...
8 ..................................................
9 ..................................................
0 ..................................................
1 ..................................................
2 ......t..........................f................
3 ..................................................
4 ..................................................
5 ..................................................
6 ..................................................
7 ..................................................
8 ..................................................
9 ....................r.............................

Turn = 2.
  01234567890123456789012345678901234567890123456789
0 ..................h..............h................
1 ..................................................
2 ..................................................
3 ..................................................
4 ..................................................
5 ..............................................f...
6 ......................f....f......................
7 ..................................................
8 ..................................................
9 .....................t.h..........................
0 ..................................................
1 ..................................................
2 .................................h................
3 ...............f..................................
4 ................................................f.
5 ........................................f.........
6 ..................................................
7 ..................r...............................
8 ..................................................
9 ..................................................
0 ...........r..................................t.h.
1 ..................................................
2 ........................f.........................
3 ..................................................
4 ..................................................
5 ..................................................
6 ..................................................
7 ..................................................
8 ..................................................
9 ..................................................
0 ..................................................
1 ..................................................
2 ..................................................
3 ..................................................
4 ..................................................
5 ..................................................
6 ..................................................
7 ..............................................t...
8 ..................................................
9 ..................................................
0 ..................................................
1 ..................................................
2 ......t..........................f................
3 ..................................................
4 ..................................................
5 ..................................................
6 ..................................................
7 ..................................................
8 ..................................................
9 .....................r............................

Turn = 3.
  01234567890123456789012345678901234567890123456789
0 ..................h..............h................
1 ..................................................
2 ..................................................
3 ..................................................
4 ..................................................
5 ..............................................f...
6 ......................f....f......................
7 ..................................................
8 .......................h..........................
9 .....................t............................
0 ..................................................
1 .................................h................
2 ..................................................
3 ...............f..................................
4 ................................................f.
5 ........................................f.........
6 ..................................................
7 ...................r..............................
8 ..................................................
9 ................................................h.
0 ............r.................................t...
1 ..................................................
2 ........................f.........................
3 ..................................................
4 ..................................................
5 ..................................................
6 ..................................................
7 ..................................................
8 ..................................................
9 ..................................................
0 ..................................................
1 ..................................................
2 ..................................................
3 ..................................................
4 ..................................................
5 ..................................................
6 ..................................................
7 ..............................................t...
8 ..................................................
9 ..................................................
0 ..................................................
1 ..................................................
2 ......t..........................f................
3 ..................................................
4 ..................................................
5 ..................................................
6 ..................................................
7 ..................................................
8 ..................................................
9 ......................r...........................

Turn = 4.
  01234567890123456789012345678901234567890123456789
0 ..................h..............h................
1 ..................................................
2 ..................................................
3 ..................................................
4 ..................................................
5 ..............................................f...
6 ......................f....f......................
7 .......................h..........................
8 ..................................................
9 .....................t............................
0 .................................h................
1 ..................................................
2 ..................................................
3 ...............f..................................
4 ................................................f.
5 ........................................f.........
6 ..................................................
7 ....................r.............................
8 ................................................h.
9 ..................................................
0 .............r................................t...
1 ..................................................
2 ........................f.........................
3 ..................................................
4 ..................................................
5 ..................................................
6 ..................................................
7 ..................................................
8 ..................................................
9 ..................................................
0 ..................................................
1 ..................................................
2 ..................................................
3 ..................................................
4 ..................................................
5 ..................................................
6 ..................................................
7 ..............................................t...
8 ..................................................
9 ..................................................
0 ..................................................
1 ..................................................
2 ......t..........................f................
3 ..................................................
4 ..................................................
5 ..................................................
6 ..................................................
7 ..................................................
8 ..................................................
9 .......................r..........................

Turn = 5.
  01234567890123456789012345678901234567890123456789
0 ..................h..............h................
1 ..................................................
2 ..................................................
3 ..................................................
4 ..................................................
5 ..............................................f...
6 ......................fh...f......................
7 ..................................................
8 ..................................................
9 .....................t...........h................
0 ..................................................
1 ..................................................
2 ..................................................
3 ...............f..................................
4 ................................................f.
5 ........................................f.........
6 ..................................................
7 .....................r..........................h.
8 ..................................................
9 ..................................................
0 ..............r...............................t...
1 ..................................................
2 ........................f.........................
3 ..................................................
4 ..................................................
5 ..................................................
6 ..................................................
7 ..................................................
8 ..................................................
9 ..................................................
0 ..................................................
1 ..................................................
2 ..................................................
3 ..................................................
4 ..................................................
5 ..................................................
6 ..................................................
7 ..............................................t...
8 ..................................................
9 ..................................................
0 ..................................................
1 ..................................................
2 ......t..........................f................
3 ..................................................
4 ..................................................
5 ..................................................
6 ..................................................
7 ..................................................
8 ..................................................
9 ........................r.........................

Turn = 6.
  01234567890123456789012345678901234567890123456789
0 ..................h..............h................
1 ..................................................
2 ..................................................
3 ..................................................
4 ..................................................
5 .......................h......................f...
6 ......................f....f......................
7 ..................................................
8 .................................h................
9 .....................t............................
0 ..................................................
1 ..................................................
2 ..................................................
3 ...............f..................................
4 ................................................f.
5 ........................................f.........
6 ................................................h.
7 ......................r...........................
8 ..................................................
9 ..................................................
0 ...............r..............................t...
1 ..................................................
2 ........................f.........................
3 ..................................................
4 ..................................................
5 ..................................................
6 ..................................................
7 ..................................................
8 ..................................................
9 ..................................................
0 ..................................................
1 ..................................................
2 ..................................................
3 ..................................................
4 ..................................................
5 ..................................................
6 ..................................................
7 ..............................................t...
8 ..................................................
9 ..................................................
0 ..................................................
1 ..................................................
2 ......t..........................f................
3 ..................................................
4 ..................................................
5 ..................................................
6 ..................................................
7 ..................................................
8 ..................................................
9 .........................r........................

Turn = 7.
  01234567890123456789012345678901234567890123456789
0 ..................h..............h................
1 ..................................................
2 ..................................................
3 ..................................................
4 .......................h..........................
5 ..............................................f...
6 ......................f....f......................
7 .................................h................
8 ..................................................
9 .....................t............................
0 ..................................................
1 ..................................................
2 ..................................................
3 ...............f..................................
4 ................................................f.
5 ........................................f.......h.
6 ..................................................
7 .......................r..........................
8 ..................................................
9 ..................................................
0 ................r.............................t...
1 ..................................................
2 ........................f.........................
3 ..................................................
4 ..................................................
5 ..................................................
6 ..................................................
7 ..................................................
8 ..................................................
9 ..................................................
0 ..................................................
1 ..................................................
2 ..................................................
3 ..................................................
4 ..................................................
5 ..................................................
6 ..................................................
7 ..............................................t...
8 ..................................................
9 ..................................................
0 ..................................................
1 ..................................................
2 ......t..........................f................
3 ..................................................
4 ..................................................
5 ..................................................
6 ..................................................
7 ..................................................
8 ..................................................
9 ..........................r.......................

Turn = 8.
  01234567890123456789012345678901234567890123456789
0 ..................h..............h................
1 ..................................................
2 ..................................................
3 .......................h..........................
4 ..................................................
5 ..............................................f...
6 ......................f....f.....h................
7 ..................................................
8 ..................................................
9 .....................t............................
0 ..................................................
1 ..................................................
2 ..................................................
3 ...............f..................................
4 ................................................f.
5 ........................................f.......h.
6 ..................................................
7 ........................r.........................
8 ..................................................
9 ..................................................
0 .................r............................t...
1 ..................................................
2 ........................f.........................
3 ..................................................
4 ..................................................
5 ..................................................
6 ..................................................
7 ..................................................
8 ..................................................
9 ..................................................
0 ..................................................
1 ..................................................
2 ..................................................
3 ..................................................
4 ..................................................
5 ..................................................
6 ..................................................
7 ..............................................t...
8 ..................................................
9 ..................................................
0 ..................................................
1 ..................................................
2 ......t..........................f................
3 ..................................................
4 ..................................................
5 ..................................................
6 ..................................................
7 ..................................................
8 ..................................................
9 ...........................r......................

Turn = 9.
  01234567890123456789012345678901234567890123456789
0 ..................h..............h................
1 ..................................................
2 .......................h..........................
3 ..................................................
4 ..................................................
5 .................................h............f...
6 ......................f....f......................
7 ..................................................
8 ..................................................
9 .....................t............................
0 ..................................................
1 ..................................................
2 ..................................................
3 ...............f..................................
4 ................................................f.
5 ........................................f.......h.
6 ..................................................
7 .........................r........................
8 ..................................................
9 ..................................................
0 ..................r...........................t...
1 ..................................................
2 ........................f.........................
3 ..................................................
4 ..................................................
5 ..................................................
6 ..................................................
7 ..................................................
8 ..................................................
9 ..................................................
0 ..................................................
1 ..................................................
2 ..................................................
3 ..................................................
4 ..................................................
5 ..................................................
6 ..................................................
7 ..............................................t...
8 ..................................................
9 ..................................................
0 ..................................................
1 ..................................................
2 ......t..........................f................
3 ..................................................
4 ..................................................
5 ..................................................
6 ..................................................
7 ..................................................
8 ..................................................
9 ............................r.....................

Turn = 10.
  01234567890123456789012345678901234567890123456789
0 ..................h..............h................
1 .......................h..........................
2 ..................................................
3 ..................................................
4 .................................h................
5 ..............................................f...
6 ......................f....f......................
7 ..................................................
8 ..................................................
9 .....................t............................
0 ..................................................
1 ..................................................
2 ..................................................
3 ...............f..................................
4 ................................................f.
5 ........................................f.......h.
6 ..................................................
7 ..........................r.......................
8 ..................................................
9 ..................................................
0 ...................r..........................t...
1 ..................................................
2 ........................f.........................
3 ..................................................
4 ..................................................
5 ..................................................
6 ..................................................
7 ..................................................
8 ..................................................
9 ..................................................
0 ..................................................
1 ..................................................
2 ..................................................
3 ..................................................
4 ..................................................
5 ..................................................
6 ..................................................
7 ..............................................t...
8 ..................................................
9 ..................................................
0 ..................................................
1 ..................................................
2 ......t..........................f................
3 ..................................................
4 ..................................................
5 ..................................................
6 ..................................................
7 ..................................................
8 ..................................................
9 .............................r....................

*** Darwin 1x1 ***
Turn = 0.
  0
0 r

Turn = 1.
  0
0 r

*** Darwin 26x26 ***
Turn = 0.
  01234567890123456789012345
0 ..........................
1 ............f.............
2 ..................t.......
3 .t........................
4 ........................f.
5 ...........r..............
6 ..........................
7 .....r....................
8 ....................r.....
9 ......r...................
0 ..........................
1 ..........................
2 ..........................
3 ..........................
4 ..........................
5 ..........................
6 .h........................
7 ..........................
8 .......h..................
9 ..............h...........
0 ..........................
1 ..........................
2 ..........................
3 ........f.................
4 ...........r......h.......
5 .................f........

Turn = 3.
  01234567890123456789012345
0 ..........................
1 ............f.............
2 ..................t.......
3 .t........................
4 ........................f.
5 ..............r...........
6 ..........................
7 ........r.................
8 .......................r..
9 .........r................
0 ..........................
1 ..........................
2 ..........................
3 .h........................
4 ..........................
5 .......h..................
6 ..............h...........
7 ..........................
8 ..........................
9 ..........................
0 ..........................
1 ..................h.......
2 ..........................
3 ........f.................
4 ..............r...........
5 .................f........

Turn = 6.
  01234567890123456789012345
0 ..........................
1 ............f.............
2 ..................t.......
3 .t........................
4 ........................f.
5 .................r........
6 ..........................
7 ...........r..............
8 .........................r
9 ............r.............
0 .h........................
1 ..........................
2 .......h..................
3 ..............h...........
4 ..........................
5 ..........................
6 ..........................
7 ..........................
8 ..................h.......
9 ..........................
0 ..........................
1 ..........................
2 ..........................
3 ........f.................
4 .................r........
5 .................f........

Turn = 9.
  01234567890123456789012345
0 ..........................
1 ............f.............
2 ..................t.......
3 .t........................
4 ........................f.
5 ....................r.....
6 ..........................
7 .h............r...........
8 ..........................
9 .......h.......r..........
0 ..............h...........
1 .........................r
2 ..........................
3 ..........................
4 ..........................
5 ..................h.......
6 ..........................
7 ..........................
8 ..........................
9 ..........................
0 ..........................
1 ..........................
2 ..........................
3 ........f.................
4 ....................r.....
5 .................f........

Turn = 12.
  01234567890123456789012345
0 ..........................
1 ............f.............
2 ..................t.......
3 .t........................
4 .h......................f.
5 .......................r..
6 .......h..................
7 ..............h..r........
8 ..........................
9 ..................r.......
0 ..........................
1 ..........................
2 ..................h.......
3 ..........................
4 .........................r
5 ..........................
6 ..........................
7 ..........................
8 ..........................
9 ..........................
0 ..........................
1 ..........................
2 ..........................
3 ........f.................
4 .......................r..
5 .................f........

*** Darwin 26x26 ***
Turn = 0.
  01234567890123456789012345
0 ..........................
1 ...............f..........
2 ..........................
3 .....f....................
4 ..........................
5 ..........................
6 ..................f.......
7 .....................t....
8 t.................r.......
9 .....................t..f.
0 ..........................
1 ........................r.
2 ..h.......................
3 ..........................
4 ..........................
5 .....t....................
6 ..........................
7 ..........................
8 ..............f......h....
9 ..........................
0 ..........................
1 .....f....................
2 ..........................
3 ..........................
4 ..........................
5 ..............r...........

Turn = 3.
  01234567890123456789012345
0 ..........................
1 ...............f..........
2 ..........................
3 .....f....................
4 ..........................
5 ..........................
6 ..................f.......
7 .....................t....
8 t....................t....
9 ..h..................t..f.
0 ..........................
1 ..........................
2 .........................r
3 ..........................
4 ..........................
5 .....t...............h....
6 ..........................
7 ..........................
8 ..............f...........
9 ..........................
0 ..........................
1 .....f....................
2 ..........................
3 ..........................
4 ..........................
5 .................r........

Turn = 6.
  01234567890123456789012345
0 ..........................
1 ...............f..........
2 ..........................
3 .....f....................
4 ..........................
5 ..........................
6 ..h...............f.......
7 .....................t....
8 t....................t....
9 .....................t..f.
0 ..........................
1 ..........................
2 .....................h....
3 ..........................
4 ..........................
5 .....t...................r
6 ..........................
7 ..........................
8 ..............f...........
9 ..........................
0 ..........................
1 .....f....................
2 ..........................
3 ..........................
4 ..........................
5 ....................r.....

Turn = 9.
  01234567890123456789012345
0 ..........................
1 ...............f..........
2 ..........................
3 ..h..f....................
4 ..........................
5 ..........................
6 ..................f.......
7 .....................t....
8 t....................t....
9 .....................t..f.
0 .....................h....
1 ..........................
2 ..........................
3 ..........................
4 ..........................
5 .....t....................
6 ..........................
7 ..........................
8 ..............f..........r
9 ..........................
0 ..........................
1 .....f....................
2 ..........................
3 ..........................
4 ..........................
5 .......................r..

Turn = 12.
  01234567890123456789012345
0 ..h.......................
1 ...............f..........
2 ..........................
3 .....f....................
4 ..........................
5 ..........................
6 ..................f.......
7 .....................t....
8 t....................t....
9 .....................t..f.
0 .....................t....
1 ..........................
2 ..........................
3 ..........................
4 ..........................
5 .....t....................
6 ..........................
7 ..........................
8 ..............f...........
9 ..........................
0 ..........................
1 .....f...................r
2 ..........................
3 ..........................
4 ..........................
5 .........................r

*** Darwin 21x21 ***
Turn = 0.
  012345678901234567890
0 .....................
1 .....................
2 h....................
3 ......t..............
4 ....h................
5 .....................
6 ...........f.........
7 .....................
8 .....................
9 t....................
0 ...........h.........
1 .....................
2 .....................
3 .....................
4 ........r............
5 ....r................
6 .....................
7 ...f.................
8 .....................
9 .....................
0 .....................

Turn = 3.
  012345678901234567890
0 h....................
1 ....h................
2 .....................
3 ......t..............
4 .....................
5 .....................
6 ...........f.........
7 ...........h.........
8 .....................
9 t....................
0 .....................
1 .....................
2 .....................
3 .....................
4 ...........r.........
5 .......r.............
6 .....................
7 ...f.................
8 .....................
9 .....................
0 .....................

Turn = 6.
  012345678901234567890
0 h...h................
1 .....................
2 .....................
3 ......t..............
4 .....................
5 .....................
6 ...........f.........
7 ...........h.........
8 .....................
9 t....................
0 .....................
1 .....................
2 .....................
3 .....................
4 ..............r......
5 ..........r..........
6 .....................
7 ...f.................
8 .....................
9 .....................
0 .....................

Turn = 9.
  012345678901234567890
0 h...h................
1 .....................
2 .....................
3 ......t..............
4 .....................
5 .....................
6 ...........f.........
7 ...........h.........
8 .....................
9 t....................
0 .....................
1 .....................
2 .....................
3 .....................
4 .................r...
5 .............r.......
6 .....................
7 ...f.................
8 .....................
9 .....................
0 .....................

Turn = 12.
  012345678901234567890
0 h...h................
1 .....................
2 .....................
3 ......t..............
4 .....................
5 .....................
6 ...........f.........
7 ...........h.........
8 .....................
9 t....................
0 .....................
1 .....................
2 .....................
3 .....................
4 ....................r
5 ................r....
6 .....................
7 ...f.................
8 .....................
9 .....................
0 .....................

*** Darwin 21x21 ***
Turn = 0.
  012345678901234567890
0 .....................
1 .....................
2 .....r...............
3 ...r.....t...........
4 ....................t
5 .....................
6 ...............t.....
7 .....................
8 .....................
9 .....................
0 .................h...
1 ...f.................
2 .....................
3 ....t......t.........
4 ........r............
5 .....................
6 .....................
7 .....................
8 .....................
9 .....................
0 .....................

Turn = 2.
  012345678901234567890
0 .....................
1 .....................
2 .......r.............
3 .....r...t...........
4 ....................t
5 .....................
6 ...............t.....
7 .....................
8 .................h...
9 .....................
0 .....................
1 ...f.................
2 .....................
3 ....t......t.........
4 ..........r..........
5 .....................
6 .....................
7 .....................
8 .....................
9 .....................
0 .....................

Turn = 4.
  012345678901234567890
0 .....................
1 .....................
2 .........r...........
3 .......r.t...........
4 ....................t
5 .....................
6 ...............t.h...
7 .....................
8 .....................
9 .....................
0 .....................
1 ...f.................
2 .....................
3 ....t......t.........
4 ............r........
5 .....................
6 .....................
7 .....................
8 .....................
9 .....................
0 .....................

Turn = 6.
  012345678901234567890
0 .....................
1 .....................
2 ...........r.........
3 ........r.r..........
4 .................h..t
5 .....................
6 ...............t.....
7 .....................
8 .....................
9 .....................
0 .....................
1 ...f.................
2 .....................
3 ....t......t.........
4 ..............r......
5 .....................
6 .....................
7 .....................
8 .....................
9 .....................
0 .....................

Turn = 8.
  012345678901234567890
0 .....................
1 .....................
2 .............r...h...
3 ..........r.r........
4 ....................t
5 .....................
6 ...............t.....
7 .....................
8 .....................
9 .....................
0 .....................
1 ...f.................
2 .....................
3 ....t......t.........
4 ................r....
5 .....................
6 .....................
7 .....................
8 .....................
9 .....................
0 .....................

*** Darwin 21x21 ***
Turn = 0.
  012345678901234567890
0 ......h..............
1 ...................f.
2 .....................
3 ..........f...r......
4 .....................
5 .....................
6 .....................
7 .....................
8 ............h........
9 .....................
0 .....................
1 .....................
2 .....................
3 ..............r......
4 .....................
5 ................r....
6 r....................
7 .....................
8 ................h....
9 .....................
0 ...............h.....

Turn = 2.
  012345678901234567890
0 ......h..............
1 ...................f.
2 .....................
3 ..........f.....r....
4 .....................
5 .....................
6 ............h........
7 .....................
8 .....................
9 .....................
0 .....................
1 .....................
2 .....................
3 ................r....
4 .....................
5 ..................r..
6 ..r.............h....
7 .....................
8 ...............h.....
9 .....................
0 .....................

Turn = 4.
  012345678901234567890
0 ......h..............
1 ...................f.
2 .....................
3 ..........f.......r..
4 ............h........
5 .....................
6 .....................
7 .....................
8 .....................
9 .....................
0 .....................
1 .....................
2 .....................
3 ..................r..
4 ................h....
5 ....................r
6 ....r..........h.....
7 .....................
8 .....................
9 .....................
0 .....................

Turn = 6.
  012345678901234567890
0 ......h..............
1 ...................f.
2 ............h........
3 ..........f.........r
4 .....................
5 .....................
6 .....................
7 .....................
8 .....................
9 .....................
0 .....................
1 .....................
2 ................h....
3 ....................r
4 ...............h.....
5 .....................
6 ......r.............r
7 .....................
8 .....................
9 .....................
0 .....................

Turn = 8.
  012345678901234567890
0 ......h.....h........
1 ...................f.
2 ....................r
3 ..........f..........
4 .....................
5 .....................
6 .....................
7 .....................
8 .....................
9 .....................
0 ................h....
1 .....................
2 ...............h.....
3 .....................
4 ....................r
5 .....................
6 ........r............
7 .....................
8 ....................r
9 .....................
0 .....................

*** Darwin 20x20 ***
Turn = 0.
  01234567890123456789
0 ....................
1 ....................
2 ................f...
3 ....................
4 ....................
5 ..............t.....
6 ....................
7 .................r..
8 ....................
9 ....................
0 ....................
1 ...f................
2 ....................
3 .........f..........
4 ....................
5 ....................
6 ....................
7 .........r.......hh.
8 ..............f.....
9 ............h.......

Turn = 2.
  01234567890123456789
0 ....................
1 ....................
2 ................f...
3 ....................
4 ....................
5 ..............t.....
6 ....................
7 ...................r
8 ....................
9 ....................
0 ....................
1 ...f................
2 ....................
3 .........f..........
4 ....................
5 .................hh.
6 ....................
7 ...........rh.......
8 ..............f.....
9 ....................

Turn = 4.
  01234567890123456789
0 ....................
1 ....................
2 ................f...
3 ....................
4 ....................
5 ..............t.....
6 ....................
7 ....................
8 ...................r
9 ....................
0 ....................
1 ...f................
2 ....................
3 .........f.......hh.
4 ....................
5 ............r.......
6 ....................
7 ............r.......
8 ..............f.....
9 ....................

Turn = 6.
  01234567890123456789
0 ....................
1 ....................
2 ................f...
3 ....................
4 ....................
5 ..............t.....
6 ....................
7 ....................
8 ....................
9 ....................
0 ...................r
1 ...f.............hh.
2 ....................
3 .........f..r.......
4 ....................
5 ....................
6 ....................
7 ..............r.....
8 ..............f.....
9 ....................

Turn = 8.
  01234567890123456789
0 ....................
1 ....................
2 ................f...
3 ....................
4 ....................
5 ..............t.....
6 ....................
7 ....................
8 ....................
9 .................hh.
0 ....................
1 ...f........r.......
2 ...................r
3 .........f..........
4 ....................
5 ....................
6 ....................
7 ................r...
8 ..............f.....
9 ....................

*** Darwin 20x20 ***
Turn = 0.
  01234567890123456789
0 ....................
1 ....................
2 ....................
3 .....h..............
4 ....................
5 .............t......
6 ....................
7 ...r................
8 ..........t.........
9 ..f..........f......
0 ..f.r...............
1 ....................
2 ....................
3 ....................
4 .................f..
5 ....................
6 ....t...............
7 ....................
8 ....................
9 ....................

Turn = 2.
  01234567890123456789
0 ....................
1 .....h..............
2 ....................
3 ....................
4 ....................
5 .............t......
6 ....................
7 .....r..............
8 ..........t.........
9 ..f..........f......
0 ..f...r.............
1 ....................
2 ....................
3 ....................
4 .................f..
5 ....................
6 ....t...............
7 ....................
8 ....................
9 ....................

Turn = 4.
  01234567890123456789
0 .....h..............
1 ....................
2 ....................
3 ....................
4 ....................
5 .............t......
6 ....................
7 .......r............
8 ..........t.........
9 ..f..........f......
0 ..f.....r...........
1 ....................
2 ....................
3 ....................
4 .................f..
5 ....................
6 ....t...............
7 ....................
8 ....................
9 ....................

Turn = 6.
  01234567890123456789
0 .....h..............
1 ....................
2 ....................
3 ....................
4 ....................
5 .............t......
6 ....................
7 .........r..........
8 ..........t.........
9 ..f..........f......
0 ..f.......r.........
1 ....................
2 ....................
3 ....................
4 .................f..
5 ....................
6 ....t...............
7 ....................
8 ....................
9 ....................

Turn = 8.
  01234567890123456789
0 .....h..............
1 ....................
2 ....................
3 ....................
4 ....................
5 .............t......
6 ....................
7 ..........t.........
8 ..........t.........
9 ..f..........f......
0 ..f.........r.......
1 ....................
2 ....................
3 ....................
4 .................f..
5 ....................
6 ....t...............
7 ....................
8 ....................
9 ....................

*** Darwin 20x20 ***
Turn = 0.
  01234567890123456789
0 ........h...........
1 ............h.......
2 ....................
3 .............h......
4 ....................
5 ....................
6 ....................
7 ....................
8 .f..................
9 .r..................
0 ..........r.......hf
1 .t..................
2 ....................
3 ....................
4 ....................
5 ....................
6 ....................
7 .f..................
8 ....................
9 ....................

Turn = 2.
  01234567890123456789
0 ........h...h.......
1 .............h......
2 ....................
3 ....................
4 ....................
5 ....................
6 ....................
7 ....................
8 .f................h.
9 ...r................
0 ............r......f
1 .t..................
2 ....................
3 ....................
4 ....................
5 ....................
6 ....................
7 .f..................
8 ....................
9 ....................

Turn = 4.
  01234567890123456789
0 ........h...hh......
1 ....................
2 ....................
3 ....................
4 ....................
5 ....................
6 ..................h.
7 ....................
8 .f..................
9 .....r..............
0 ..............r....f
1 .t..................
2 ....................
3 ....................
4 ....................
5 ....................
6 ....................
7 .f..................
8 ....................
9 ....................

Turn = 6.
  01234567890123456789
0 ........h...hh......
1 ....................
2 ....................
3 ....................
4 ..................h.
5 ....................
6 ....................
7 ....................
8 .f..................
9 .......r............
0 ................r..f
1 .t..................
2 ....................
3 ....................
4 ....................
5 ....................
6 ....................
7 .f..................
8 ....................
9 ....................

Turn = 8.
  01234567890123456789
0 ........h...hh......
1 ....................
2 ..................h.
3 ....................
4 ....................
5 ....................
6 ....................
7 ....................
8 .f..................
9 .........r..........
0 ..................rf
1 .t..................
2 ....................
3 ....................
4 ....................
5 ....................
6 ....................
7 .f..................
8 ....................
9 ....................

*** Darwin 40x40 ***
Turn = 0.
  0123456789012345678901234567890123456789
0 ...................h....................
1 ........................................
2 ........................................
3 ........................................
4 ......................r.................
5 ........................................
6 ..........f.............................
7 ..................r...................t.
8 ........................................
9 ........................................
0 ........................................
1 ...........................r............
2 ........................................
3 ........................................
4 ........................................
5 ........................................
6 ........................................
7 ............h...........................
8 .................................h......
9 ........................................
0 ........................................
1 ........................................
2 ........................................
3 .......................................t
4 ........................................
5 .r......................................
6 ........................................
7 ........................................
8 .................f......................
9 .............................t..........
0 ...................................r..t.
1 ........................................
2 ........................................
3 ........................................
4 .....t..................................
5 ........................................
6 ........................................
7 ........................................
8 ........................................
9 ........................................

Turn = 2.
  0123456789012345678901234567890123456789
0 ...................h....................
1 ........................................
2 ........................................
3 ........................................
4 ........................r...............
5 ........................................
6 ..........f.............................
7 ....................r.................t.
8 ........................................
9 ........................................
0 ........................................
1 .............................r..........
2 ........................................
3 ........................................
4 ........................................
5 ............h...........................
6 .................................h......
7 ........................................
8 ........................................
9 ........................................
0 ........................................
1 ........................................
2 ........................................
3 .......................................t
4 ........................................
5 ...r....................................
6 ........................................
7 ........................................
8 .................f......................
9 .............................t..........
0 .....................................rt.
1 ........................................
2 ........................................
3 ........................................
4 .....t..................................
5 ........................................
6 ........................................
7 ........................................
8 ........................................
9 ........................................

Turn = 4.
  0123456789012345678901234567890123456789
0 ...................h....................
1 ........................................
2 ........................................
3 ........................................
4 ..........................r.............
5 ........................................
6 ..........f.............................
7 ......................r...............t.
8 ........................................
9 ........................................
0 ........................................
1 ...............................r........
2 ........................................
3 ............h...........................
4 .................................h......
5 ........................................
6 ........................................
7 ........................................
8 ........................................
9 ........................................
0 ........................................
1 ........................................
2 ........................................
3 .......................................t
4 ........................................
5 .....r..................................
6 ........................................
7 ........................................
8 .................f....................r.
9 .............................t..........
0 ......................................r.
1 ........................................
2 ........................................
3 ........................................
4 .....t..................................
5 ........................................
6 ........................................
7 ........................................
8 ........................................
9 ........................................

Turn = 6.
  0123456789012345678901234567890123456789
0 ...................h....................
1 ........................................
2 ........................................
3 ........................................
4 ............................r...........
5 ........................................
6 ..........f.............................
7 ........................r.............t.
8 ........................................
9 ........................................
0 ........................................
1 ............h....................r......
2 .................................h......
3 ........................................
4 ........................................
5 ........................................
6 ........................................
7 ........................................
8 ........................................
9 ........................................
0 ........................................
1 ........................................
2 ........................................
3 .......................................t
4 ........................................
5 .......r................................
6 ......................................r.
7 ........................................
8 .................f......................
9 .............................t..........
0 .......................................r
1 ........................................
2 ........................................
3 ........................................
4 .....t..................................
5 ........................................
6 ........................................
7 ........................................
8 ........................................
9 ........................................

Turn = 8.
  0123456789012345678901234567890123456789
0 ...................h....................
1 ........................................
2 ........................................
3 ........................................
4 ..............................r.........
5 ........................................
6 ..........f.............................
7 ..........................r...........t.
8 ........................................
9 ............h...........................
0 .................................h......
1 ...................................r....
2 ........................................
3 ........................................
4 ........................................
5 ........................................
6 ........................................
7 ........................................
8 ........................................
9 ........................................
0 ........................................
1 ........................................
2 ........................................
3 .......................................t
4 ......................................r.
5 .........r..............................
6 ........................................
7 ........................................
8 .................f......................
9 .............................t..........
0 ........................................
1 ........................................
2 .......................................r
3 ........................................
4 .....t..................................
5 ........................................
6 ........................................
7 ........................................
8 ........................................
9 ........................................
