*** Darwin 8x8 ***
Turn = 0.
  01234567
0 f.......
1 ........
2 ........
3 ...hh...
4 ...hh...
5 ........
6 ........
7 .......f

Turn = 1.
  01234567
0 f.......
1 ........
2 ...h....
3 .....h..
4 ..h.....
5 ....h...
6 ........
7 .......f

Turn = 2.
  01234567
0 f.......
1 ...h....
2 ........
3 ......h.
4 .h......
5 ........
6 ....h...
7 .......f

Turn = 3.
  01234567
0 f..h....
1 ........
2 ........
3 .......h
4 h.......
5 ........
6 ........
7 ....h..f

Turn = 4.
  01234567
0 f..h....
1 ........
2 ........
3 .......h
4 h.......
5 ........
6 ........
7 ....h..f

Turn = 5.
  01234567
0 f..h....
1 ........
2 ........
3 .......h
4 h.......
5 ........
6 ........
7 ....h..f

*** Darwin 7x9 ***
Turn = 0.
  012345678
0 t........
1 .........
2 .........
3 ..h......
4 .........
5 ....r....
6 ........t

Turn = 1.
  012345678
0 t........
1 .........
2 .........
3 ...h.....
4 ....r....
5 .........
6 ........t

Turn = 2.
  012345678
0 t........
1 .........
2 .........
3 ....r....
4 ....r....
5 .........
6 ........t

Turn = 3.
  012345678
0 t........
1 .........
2 .........
3 ....rr...
4 .........
5 .........
6 ........t

Turn = 4.
  012345678
0 t........
1 .........
2 ....r....
3 ......r..
4 .........
5 .........
6 ........t

Turn = 5.
  012345678
0 t........
1 ....r....
2 .........
3 .......r.
4 .........
5 .........
6 ........t

*** Darwin 1x2 ***
Turn = 0.
  01
0 rt

Turn = 1.
  01
0 rr

Turn = 2.
  01
0 rr

*** Darwin 1x2 ***
Turn = 0.
  01
0 tr

Turn = 1.
  01
0 tt

Turn = 2.
  01
0 tt

*** Darwin 6x6 ***
Turn = 0.
  012345
0 fftft.
1 t.f..h
2 .f.trh
3 .f.h..
4 ...f.t
5 .hth..

Turn = 4.
  012345
0 ttttt.
1 t.t..h
2 .f.t..
3 .f.t.r
4 ...t.r
5 .htt.r

Turn = 8.
  012345
0 ttttt.
1 t.t..h
2 .f.t..
3 .f.rr.
4 ...tr.
5 .ttrr.

Turn = 12.
  012345
0 ttttt.
1 t.tt.h
2 .rr...
3 .rr...
4 ...tr.
5 .ttrr.

Turn = 16.
  012345
0 ttttt.
1 r.tt.h
2 r.t...
3 ......
4 r..tr.
5 rrtrr.

Turn = 20.
  012345
0 ttttt.
1 t.tt.h
2 t.r...
3 r.r...
4 ...rr.
5 .rrrr.

*** Darwin 8x8 ***
Turn = 0.
  01234567
0 ......r.
1 ........
2 ........
3 ........
4 ........
5 ..r.....
6 ........
7 .t......

Turn = 200.
  01234567
0 ..r.....
1 ........
2 ........
3 .r......
4 .r......
5 ........
6 ........
7 ........

Turn = 400.
  01234567
0 ........
1 r.......
2 ........
3 ........
4 ........
5 .....rr.
6 ........
7 ........

Turn = 600.
  01234567
0 .rr.....
1 ........
2 .......r
3 ........
4 ........
5 ........
6 ........
7 ........

Turn = 800.
  01234567
0 ........
1 ........
2 .......r
3 ........
4 ........
5 ........
6 ........
7 .r.....r

Turn = 1000.
  01234567
0 ....r...
1 ........
2 ........
3 ........
4 ........
5 ........
6 .......r
7 ......r.

*** Darwin 4x4 ***
Turn = 0.
  0123
0 r...
1 f..f
2 ...t
3 h..f

Turn = 2.
  0123
0 r...
1 r..t
2 ...t
3 ..hf

Turn = 4.
  0123
0 ..r.
1 ..rt
2 ...t
3 ..tt

Turn = 6.
  0123
0 ...r
1 ..rr
2 ...t
3 ..tt

Turn = 8.
  0123
0 ...r
1 .r..
2 ..tt
3 ..rt

*** Darwin 10x3 ***
Turn = 0.
  012
0 .h.
1 ...
2 ...
3 ...
4 ...
5 h..
6 ...
7 ...
8 ...
9 h..

Turn = 5.
  012
0 ...
1 ...
2 ...
3 ...
4 h..
5 .hh
6 ...
7 ...
8 ...
9 ...

Turn = 10.
  012
0 h..
1 ...
2 ...
3 ...
4 ...
5 ..h
6 ...
7 ...
8 ...
9 .h.

Turn = 15.
  012
0 h..
1 ...
2 ...
3 ...
4 ...
5 ..h
6 ...
7 ...
8 ...
9 .h.

*** Darwin 50x63 ***
Turn = 0.
  012345678901234567890123456789012345678901234567890123456789012
0 ...............................................................
1 ...............................................................
2 ...............................................................
3 ...............................................................
4 ...............................................................
5 ...............................................................
6 ...............................................................
7 ...............................................................
8 ...............................................................
9 ...............................................................
0 ...............................................................
1 ...............................................................
2 .........f.....................................................
3 ...............................................................
4 ...............................................................
5 ...............................................................
6 ...............................................................
7 ...............................................................
8 ...............................................................
9 ...............................................................
0 ...............................................................
1 ...............................................................
2 ...............................................................
3 .............................................t.................
4 ...............................................................
5 ...............................................................
6 ...............................................................
7 ...............................................................
8 ...............................................................
9 ...............................................................
0 ...............................................................
1 ...............................................................
2 ...........................................r...................
3 ...............................................................
4 ................................r..............................
5 ...............................................................
6 ...............................................................
7 ...............................................................
8 ...............................................................
9 ...............................................................
0 ...............................................................
1 ...............................................................
2 ...............................................................
3 ...............................................................
4 ...............................................................
5 ...............................................................
6 ...............................................................
7 ...............................................................
8 ...............................................................
9 ...............................................................

Turn = 17.
  012345678901234567890123456789012345678901234567890123456789012
0 ...............................................................
1 ...............................................................
2 ...............................................................
3 ...............................................................
4 ...............................................................
5 ...............................................................
6 ...............................................................
7 ...............................................................
8 ...............................................................
9 ...............................................................
0 ...............................................................
1 ...............................................................
2 .........f.....................................................
3 ...............................................................
4 ...............................................................
5 ...............................................................
6 ...............................................................
7 ................................r..............................
8 ...............................................................
9 ...............................................................
0 ...............................................................
1 ...............................................................
2 ...............................................................
3 .............................................t.................
4 ...............................................................
5 ...............................................................
6 ...............................................................
7 ...............................................................
8 ...............................................................
9 ...............................................................
0 ...............................................................
1 ...............................................................
2 ..........................r....................................
3 ...............................................................
4 ...............................................................
5 ...............................................................
6 ...............................................................
7 ...............................................................
8 ...............................................................
9 ...............................................................
0 ...............................................................
1 ...............................................................
2 ...............................................................
3 ...............................................................
4 ...............................................................
5 ...............................................................
6 ...............................................................
7 ...............................................................
8 ...............................................................
9 ...............................................................

Turn = 34.
  012345678901234567890123456789012345678901234567890123456789012
0 ................................r..............................
1 ...............................................................
2 ...............................................................
3 ...............................................................
4 ...............................................................
5 ...............................................................
6 ...............................................................
7 ...............................................................
8 ...............................................................
9 ...............................................................
0 ...............................................................
1 ...............................................................
2 .........f.....................................................
3 ...............................................................
4 ...............................................................
5 ...............................................................
6 ...............................................................
7 ...............................................................
8 ...............................................................
9 ...............................................................
0 ...............................................................
1 ...............................................................
2 ...............................................................
3 .............................................t.................
4 ...............................................................
5 ...............................................................
6 ...............................................................
7 ...............................................................
8 ...............................................................
9 ...............................................................
0 ...............................................................
1 ...............................................................
2 .........r.....................................................
3 ...............................................................
4 ...............................................................
5 ...............................................................
6 ...............................................................
7 ...............................................................
8 ...............................................................
9 ...............................................................
0 ...............................................................
1 ...............................................................
2 ...............................................................
3 ...............................................................
4 ...............................................................
5 ...............................................................
6 ...............................................................
7 ...............................................................
8 ...............................................................
9 ...............................................................

Turn = 51.
  012345678901234567890123456789012345678901234567890123456789012
0 ................................................r..............
1 ...............................................................
2 ...............................................................
3 ...............................................................
4 ...............................................................
5 ...............................................................
6 ...............................................................
7 ...............................................................
8 ...............................................................
9 ...............................................................
0 ...............................................................
1 ...............................................................
2 .........f.....................................................
3 ...............................................................
4 ...............................................................
5 ...............................................................
6 ...............................................................
7 ...............................................................
8 ...............................................................
9 ...............................................................
0 ...............................................................
1 ...............................................................
2 ...............................................................
3 .............................................t.................
4 ...............................................................
5 ...............................................................
6 ...............................................................
7 ...............................................................
8 ...............................................................
9 ...............................................................
0 ...............................................................
1 ...............................................................
2 ...............................................................
3 ...............................................................
4 ...............................................................
5 ...............................................................
6 ...............................................................
7 ...............................................................
8 ...............................................................
9 r..............................................................
0 ...............................................................
1 ...............................................................
2 ...............................................................
3 ...............................................................
4 ...............................................................
5 ...............................................................
6 ...............................................................
7 ...............................................................
8 ...............................................................
9 ...............................................................

*** Darwin 34x33 ***
Turn = 0.
  012345678901234567890123456789012
0 .................................
1 .......................hh........
2 ........f..........f.......f.....
3 .........................r......t
4 .................................
5 ....h............................
6 .........t.......................
7 .................................
8 .................................
9 .................................
0 .................r..r...........h
1 .................................
2 ............t....................
3 .............................f...
4 ....f............................
5 ............r....................
6 ............r....................
7 .............t....rt.....t.......
8 t................................
9 .........h..f........f...........
0 .t......f........r...............
1 ............f....................
2 ...............................r.
3 .........h......h...............h
4 ............r....................
5 ..........................hf.....
6 ......t...r......................
7 ....................t............
8 .......r.....t....h..............
9 .................................
0 ............fr...................
1 ......................t.........r
2 ...........................r.....
3 ....t...h.....t.......r.......t..

Turn = 200.
  012345678901234567890123456789012
0 r......r.....rrr..r.............r
1 ....r........rr..................
2 ............r....................
3 .................................
4 .................................
5 .........tt......................
6 .........t........r......r.......
7 .................................
8 r................................
9 .................................
0 .............................r...
1 ......................rr.........
2 .................................
3 .............r...................
4 .................................
5 .................................
6 r...r.......................r....
7 ...r............................r
8 ..r...........................r..
9 ..........r......................
0 .....rr...r....r.................
1 .........r....r...............r..
2 .................................
3 r................................
4 r.........r.....................r
5 .................................
6 ...........r........t...........r
7 ....................t..........rr
8 .......r........................r
9 .................................
0 .................................
1 .r...............................
2 ............................r....
3 ...r..........r..................

Turn = 400.
  012345678901234567890123456789012
0 ................r.rr......rrrr...
1 ................................r
2 ..................r.........r...r
3 ..............r............r.....
4 r...............r................
5 r..............rr.......rr.......
6 .................r...............
7 .................................
8 ..............r..................
9 ..............................r.r
0 .................rr..............
1 .................................
2 ....r............................
3 .................................
4 ...........r.....................
5 .....r...........................
6 .................................
7 .................................
8 .................................
9 .............................r...
0 ...r........................rr...
1 ....r............................
2 .............r...................
3 .................................
4 r...........rr...................
5 .r...............................
6 .................................
7 .................................
8 .r.r.............................
9 .................................
0 r................................
1 rr..........r....................
2 rr.............r.................
3 ..........r..rr........r.........

Turn = 600.
  012345678901234567890123456789012
0 .r...............................
1 .......r.........................
2 .r...............................
3 r..............................r.
4 ....r...r........................
5 ...............rr....r...........
6 ..........................r......
7 r........r................r......
8 ................r................
9 ..r.......................r......
0 .................................
1 ..r.......................r......
2 ........r........................
3 .........r......................r
4 .................................
5 .................................
6 .................................
7 ..r........................r.....
8 .................r....r..........
9 ....r............................
0 r................................
1 .....................r...........
2 r.......r.............r..........
3 r................................
4 .r........r........r..........r..
5 .................................
6 ...............r.................
7 ........................r........
8 ........r........................
9 .................................
0 ...............................rr
1 ...............rr.........r......
2 ................r......r.......rr
3 ..........................r...r.r

Turn = 800.
  012345678901234567890123456789012
0 ........r...r.r....rr...........r
1 ....r.........r..................
2 r..........r.....................
3 ............r....................
4 .................................
5 ........r........................
6 .......r........................r
7 .................................
8 ...............r.................
9 ...............r.................
0 .................................
1 .................................
2 .r...............................
3 .........r.......................
4 .................................
5 ..r....r.........................
6 ......r..........................
7 ...........r.....................
8 ............r....rr..............
9 .r...............................
0 .r..............................r
1 .................................
2 .................................
3 ....................r...r........
4 ................................r
5 ...............................r.
6 ..........................rr.....
7 ..r..r...............rrr.........
8 .................................
9 ............rr.................rr
0 ...........r.....................
1 ....r.....r......................
2 ........r........................
3 ....r..r.r..............r.....r..

Turn = 1000.
  012345678901234567890123456789012
0 r.......r.....r........r.........
1 ..r.r............................
2 ....r....rr......................
3 .................................
4 ................................r
5 ...r.............................
6 ..............r..................
7 r............r...................
8 ..r............................rr
9 .................................
0 .............................rr..
1 .r...............................
2 ................................r
3 ...............r.................
4 rrr.r.................r..........
5 .........................r.......
6 ......................r...r......
7 ............r....................
8 .................................
9 .................................
0 r................................
1 ..r.........r....................
2 .............r...................
3 ........................r.......r
4 .................................
5 .................................
6 .....................r.........r.
7 .........r........r....rrrr...r..
8 .................................
9 .............r...................
0 .................................
1 .................................
2 ............................r....
3 .................r......rrr......

Turn = 1200.
  012345678901234567890123456789012
0 r..rr....r...r...................
1 r.......r.....................r.r
2 .........r.......................
3 ..............r..r...............
4 .........r......r................
5 .................................
6 .......r.r.......................
7 ......r..r.......................
8 ......................r..........
9 ...rr............................
0 ................................r
1 .r.........r..r..................
2 ..........r......................
3 ........................r........
4 rr.........r.....................
5 ..........r......................
6 r................................
7 ...........r................r....
8 .................................
9 .............................r..r
0 ............................r....
1 ...........................r....r
2 .......r.........................
3 ........r........................
4 r.......r.......................r
5 ..rr.............................
6 .................................
7 .................r..............r
8 .................................
9 .................................
0 r................................
1 .r...............................
2 .................................
3 .......r.........r...............

*** Darwin 30x30 ***
Turn = 0.
  012345678901234567890123456789
0 h............................r
1 h............................r
2 h............................r
3 h............................r
4 h............................r
5 h............................r
6 h............................r
7 h............................r
8 h............................r
9 h............................r
0 h............................r
1 h............................r
2 h............................r
3 h............................r
4 h............................r
5 h..............t.............r
6 h.............t.t............r
7 h..............t.............r
8 h............................r
9 h............................r
0 h............................r
1 h............................r
2 h............................r
3 h............................r
4 h............................r
5 h............................r
6 h............................r
7 h............................r
8 h............................r
9 h............................r

Turn = 25.
  012345678901234567890123456789
0 ..........r.r......r..........
1 ....................r.........
2 .......................r......
3 ..............................
4 ........r..............r......
5 ......r..........r.....r......
6 ......r........r..r....r......
7 ......rr....r.................
8 ......rr......................
9 ......rr......................
0 ........r.....................
1 ....................r.........
2 ........r.r............r......
3 ..................r..r........
4 .......r.r....................
5 ..............t......r........
6 .............ttt.t............
7 ..............ttt.............
8 ..............tt..............
9 ......rr......................
0 ......rr......................
1 ......r................r......
2 ..............r.....r..r......
3 ........r...........r..r......
4 ................r...r.........
5 ......rr......................
6 ........r.....................
7 .......................r......
8 ........r..r..................
9 ......rr............r.........

Turn = 50.
  012345678901234567890123456789
0 ...........r..r...r....r.r.r..
1 ............r....r.......r....
2 r............r................
3 r.............................
4 r...........r.................
5 ..r...........................
6 ..............r..r..........r.
7 ..............r...............
8 ..............................
9 ............r.................
0 ..............................
1 .........r......rr............
2 ..........r.....r.............
3 ...........r..................
4 ..............r........r......
5 ..............tt.......r......
6 .............ttt.t............
7 ..............ttt.............
8 r...r.........rt..............
9 .............rrr..............
0 ..............................
1 ..............r...............
2 .............r................
3 .......r......r...............
4 r......r....................r.
5 ..........r.......r........r..
6 ..............................
7 r..............rr.............
8 ................rr............
9 ..rr.....r......r.............

Turn = 75.
  012345678901234567890123456789
0 r.r.............r.........rrr.
1 ..............................
2 ..............................
3 .......................r......
4 ...........................r..
5 ..r.......................rr..
6 r........r....................
7 .............................r
8 ..............................
9 .......r....................rr
0 ........rrr.......r..........r
1 ......r.......................
2 .............................r
3 r.......................r..r.r
4 r.............................
5 .....rrr......t...............
6 .........r....tt.............r
7 ...r.........tttt.............
8 .....r.........tt.............
9 r..............t..............
0 .......r.......tr.............
1 ...............r.............r
2 ..r............r..............
3 ..............................
4 ..............................
5 ...........................r..
6 .............................r
7 .................r...........r
8 ..............................
9 ..rrr...........r.......rr....

Turn = 100.
  012345678901234567890123456789
0 .....r........r.rrr........r..
1 ............r.................
2 .....r........................
3 ....r.........................
4 .........................r....
5 r..........r..................
6 ..............................
7 ..............................
8 ......r.......................
9 ..........................r...
0 ..............r.....r....r....
1 r.............r.....rr........
2 ..........r.......r...........
3 .rr...........................
4 ..........r.............r.....
5 ...............t........r.....
6 .............rrt..............
7 .r..........ttttt.............
8 ..............ttt.............
9 ......r.......tttt............
0 r...............tt...........r
1 ................t.............
2 r..........................r..
3 ..............................
4 .............................r
5 r............................r
6 r....r........................
7 .....r........................
8 ................r.............
9 ...rrr..............r.........

Turn = 125.
  012345678901234567890123456789
0 ...........r..................
1 r..........r................r.
2 ............................r.
3 .r............................
4 ..............................
5 r.............................
6 ................r.............
7 ..............................
8 ..............................
9 .................rr...........
0 r.............................
1 ..............................
2 .............................r
3 r.............................
4 .r......r.....................
5 ........r....................r
6 .............ttt..............
7 r...........ttttt.............
8 .......r....t.ttt.............
9 .............ttttt............
0 r..............ttt...........r
1 ................t............r
2 .............r................
3 rrr..........r.........rr.....
4 ..............r.....r.........
5 ..............r..r.....rr.....
6 ..................r..r.r......
7 ..............................
8 ..............r..r............
9 .............r..r........r....

Turn = 150.
  012345678901234567890123456789
0 ..rr.......r........r..r......
1 ...........r.........r........
2 ............r.................
3 r........r...................r
4 ..............................
5 ...r..........................
6 ...................r..........
7 ................r.............
8 .................r............
9 ..............................
0 ..............................
1 ..............................
2 ..............................
3 ..........................r...
4 ..............................
5 ..............................
6 .............ttt..............
7 ....r.......ttttt.............
8 ..............ttt.............
9 .............ttttt............
0 .............ttttt............
1 ...r............t.............
2 ................t........r....
3 ....r........................r
4 r..r..........................
5 r.............................
6 .r.r....r.........r.rr.r.r....
7 .................r..r........r
8 ........r.....................
9 ...........r........r..r..r..r

Turn = 175.
  012345678901234567890123456789
0 rr.rr..................r.....r
1 r.......r.....................
2 r......................r......
3 .......................r......
4 ..............................
5 ............................r.
6 .......r......................
7 .....r........................
8 ..............................
9 ..........r...................
0 ..............................
1 ..............................
2 ..............................
3 ..............................
4 .................r............
5 ..............................
6 r............ttt..............
7 ............ttttt.............
8 ..............ttt.r...........
9 .............tttttt...........
0 .............ttttt....r......r
1 .............t.ttr...r........
2 .................r............
3 r................r...........r
4 .r.......................r...r
5 r.r......................r....
6 r.............................
7 ..............................
8 r........r....................
9 rrr....................r......

Turn = 200.
  012345678901234567890123456789
0 .......r..............r....r..
1 rr............................
2 ..................r.r.r.......
3 r........r..................r.
4 r.............................
5 ........................r.....
6 ..............................
7 ..............................
8 .r............................
9 ..............................
0 ......r.....................r.
1 .............r................
2 ..............................
3 .............r................
4 ...........r..rr.............r
5 ......r.......................
6 .............ttt..............
7 ............ttttt.............
8 ..............ttt.............
9 r............rtttt............
0 .r...........ttttttt.........r
1 ............tt.tttt...........
2 .................t............
3 ...................r..........
4 .........r........r...........
5 ..............................
6 ....................r.........
7 ..............................
8 ..............................
9 ...r..r.......r...r...........

Turn = 225.
  012345678901234567890123456789
0 ...........r.........rr.......
1 ...r.........r.r.....rr.......
2 .....................r........
3 ...................r..........
4 ..............................
5 ..............................
6 ..........................r...
7 ............r.................
8 ..............................
9 r............................r
0 rr..........................r.
1 r..........................r..
2 r..........................r..
3 r.............................
4 .......................r..r...
5 ..............t...............
6 ....rr......tt.t..............
7 ..r.........ttttt.............
8 ..............ttt.............
9 r............rtttt............
0 .............tttttt...........
1 ............tt.tttt...........
2 .................tt...........
3 r...r..................r......
4 ..............................
5 ..............................
6 ..............................
7 ..................r...........
8 ..............................
9 ....................r.........

Turn = 250.
  012345678901234567890123456789
0 r......r......................
1 ..............................
2 .............................r
3 ..............................
4 ..............................
5 ...r.................r........
6 ....r..................r......
7 ..............................
8 ..............................
9 ..............................
0 r.......................r.....
1 .........................r....
2 ..r...........................
3 .r.............r............r.
4 ..r..........r................
5 r.............t...............
6 ...rr...r....rt...............
7 .............rr.t.............
8 .......r...rrr.rt.........r...
9 ....r.......rr.rrr............
0 ......r...rr...ttr.r..........
1 ......r........tttt...........
2 .................tt........r..
3 ............r.................
4 ..............................
5 ..............................
6 ....r................rr.......
7 .....r.................r......
8 ...........................r.r
9 ...............r..........r...

Turn = 275.
  012345678901234567890123456789
0 ..........rr...........r.r...r
1 ......r.................rr....
2 ............rr................
3 ...........r.................r
4 .r........r...................
5 ..............................
6 .r...........................r
7 ..............................
8 rr............................
9 rr....................rr.....r
0 r............................r
1 .r..................r.........
2 ...................rr.........
3 ..............................
4 ..............................
5 r...........rr................
6 ..............t...............
7 ....r.........................
8 ...............t..............
9 ........r.....rt..............
0 ...............tt.............
1 r..............tttt...........
2 .r.............tttt...........
3 ......r....................r..
4 ..............................
5 ..............................
6 .....r....................r...
7 ........r..................r.r
8 .....r..r.....................
9 ...r.r......r.............r..r

Turn = 300.
  012345678901234567890123456789
0 ...r...r.rr..rr.....r......r..
1 .....r.r.rr....r...........r..
2 ............r..rr..........rr.
3 .r...r.rr.....r...........r..r
4 ........r........r..........r.
5 r......r......r...r..........r
6 rr............................
7 ..r.r.........................
8 ..............................
9 r.............................
0 ..............................
1 .r............................
2 .............................r
3 ..............................
4 ..............................
5 ..............................
6 ..............................
7 ..............................
8 ..............................
9 ..............................
0 ...............tt.............
1 ..............tttttt..........
2 ...............tttt...........
3 .................t......r.....
4 ..............................
5 ..............................
6 ........................rr...r
7 ............................r.
8 .............................r
9 ......r.......r.............rr

Turn = 325.
  012345678901234567890123456789
0 ......r..r.rrr.............rrr
1 ..........r...r...........r..r
2 ..........rr..................
3 ..............................
4 ......................r.......
5 ..............................
6 ..............................
7 ..............r.......r.......
8 .............r................
9 ..............................
0 ................rr......r.....
1 r.............................
2 ......................r.......
3 ....r.........................
4 .....................r.r.r....
5 ................r......r......
6 ........................r...r.
7 ......r.rr......r.............
8 ..............................
9 ..............................
0 ...............tttt...........
1 ...........r..tttttt.r........
2 ...............tttt...........
3 ...rr............t...........r
4 ..............................
5 ......rr......................
6 ..............................
7 ......r.......................
8 .......r..................r...
9 ......rr........r..r..........

Turn = 350.
  012345678901234567890123456789
0 .....r.r..r.............r...rr
1 .........................r...r
2 r.............................
3 ..............................
4 ................r.............
5 ...........r..................
6 rr..........r.............r...
7 ..............................
8 .....................r........
9 ..............................
0 ...................r.........r
1 ...............r.rr...........
2 ........r..r....r.............
3 ............r....r............
4 ................r.............
5 .r............................
6 ..............................
7 ...r.........................r
8 ..................r...........
9 ..........r.....tt............
0 ................ttt...........
1 .........r.....ttttt..........
2 .....rr........tttt...........
3 r................t............
4 r.r...........................
5 ................r.............
6 ..............................
7 ............rrr..............r
8 .............rr...............
9 .r.r......rr..................

Turn = 375.
  012345678901234567890123456789
0 ..rr..r.......................
1 r..........................r..
2 ..r....r............r.........
3 .......r..................r..r
4 ..r.........rr.....r........r.
5 ............r.r...............
6 ...r....r...r............r...r
7 ...............r..............
8 .............r................
9 ..............rr..............
0 ..............................
1 .....r........................
2 r..r..............r...........
3 .r............................
4 ..............................
5 ..............................
6 ...............r..............
7 .r.............r......r.......
8 ..............................
9 ................tt............
0 ................ttt...........
1 ...............ttttt..........
2 ...............tttt...........
3 ................tt............
4 ..............................
5 ...r.......................r..
6 ............................r.
7 .........................r..rr
8 r.......r.....................
9 r........r................rr..

Turn = 400.
  012345678901234567890123456789
0 r....r........r...........r...
1 r.............r...............
2 ..............................
3 ....r....r....................
4 ...........................r..
5 ...........................r..
6 ..............................
7 ..............................
8 ..............................
9 ....r.........................
0 .....r....r...............r..r
1 ...........r..................
2 ....................r.........
3 .....................r....rr..
4 ............................rr
5 .r.....................r......
6 ..............................
7 ..............................
8 ..........r...................
9 ................tt...r........
0 r..............tttt.r.........
1 ...............ttttrr.........
2 r.............r.rrt...........
3 ...............rrrt..........r
4 .................r...........r
5 ........r.....................
6 r......r.r....................
7 ...................r..........
8 r..........r..................
9 ....r.r...rr.................r

Turn = 425.
  012345678901234567890123456789
0 ........r...............r.r...
1 .......r....r.................
2 ..............................
3 ..............................
4 ..............................
5 ......r.......................
6 r..................r..........
7 .............................r
8 .....r........................
9 r.........................r...
0 ..............................
1 ...r..........................
2 r.............................
3 r..............r..............
4 .r............................
5 ..r...........................
6 .r............................
7 r...........................rr
8 ..............................
9 ........r.......ttt...........
0 ..........r....tttt...........
1 ...............tttt.....r....r
2 ................ttt....r......
3 ................t.............
4 ..............................
5 ............................rr
6 .................r......rrrr..
7 r...r..........r.......r......
8 .....r..r.......r.............
9 rrr...........rr......r.....rr

Turn = 450.
  012345678901234567890123456789
0 .....r...r.r.........r.....rr.
1 ......r.................r...rr
2 ........r..r..................
3 r...........r......r..........
4 .r........r..................r
5 .............................r
6 ............................r.
7 ..............................
8 ..............................
9 .r.................r.....r....
0 ..............................
1 r...r..................r..r...
2 r....r...................r....
3 .....rr..................r....
4 .........................r....
5 ..............................
6 .....r........................
7 ..........r..................r
8 .............................r
9 r......r.......tttt...........
0 ........r......ttttt.........r
1 ...............ttttt..........
2 ................ttt...........
3 ................t.............
4 ..............................
5 .............................r
6 ..............................
7 ..............................
8 .............................r
9 ......r..........r............

Turn = 475.
  012345678901234567890123456789
0 ..rr.rr...r....r.....rr.......
1 ...r..........r...............
2 ...r..r....r.......r..........
3 ..............................
4 ..............................
5 ..............................
6 ..............................
7 .......r.....................r
8 ......r.........r.........r...
9 .....r....................r...
0 r....r..r..............r.r....
1 r........................r...r
2 ......r..................r...r
3 .............................r
4 r........................r....
5 ..............................
6 ...................r..........
7 ......r..r...................r
8 ................t.............
9 ...............ttttt..........
0 ...............ttttt..........
1 ...............ttttt..........
2 ................ttt...........
3 ................t.............
4 ...........................r..
5 ..............................
6 ..............................
7 ..............................
8 r............................r
9 ..r....r......................

Turn = 500.
  012345678901234567890123456789
0 ...r.r.......r.r.r.r....r.....
1 ....r......r..................
2 .....r.....r.....r............
3 ..........r.....r.............
4 ..........r.r.................
5 .........r.........r..........
6 ..............................
7 .............................r
8 ..............................
9 r.............................
0 .r...........................r
1 .............................r
2 ..............................
3 ..............................
4 ............r.................
5 ......rr......................
6 .r.rr.........................
7 ..r...........................
8 ...r............t..t..........
9 ...............tttttt.........
0 ...............ttttt..........
1 ...............ttttt....r.....
2 ................tttt..........
3 ................t.............
4 ..............................
5 ..............................
6 r.............................
7 ..............................
8 ..r......................r....
9 ..r..r.................r.r..rr

Turn = 525.
  012345678901234567890123456789
0 r.........................r..r
1 r.........................r...
2 .r.r.......................r..
3 ..............................
4 ...................r..........
5 ..............................
6 ...........................r..
7 .............................r
8 ..............................
9 ..............................
0 ........................r.....
1 .....r.......................r
2 .........................r....
3 .................r............
4 r.................r...........
5 .............rr...............
6 .............r................
7 ...............r..r...........
8 ..............r..tr...........
9 ........r......ttrrttt........
0 .........r.....ttttt..........
1 ........r......ttttt..........
2 .......r.r......tttt..........
3 ................t.............
4 ..............................
5 ....r.........................
6 ...r............r.............
7 r.............................
8 ..............................
9 r.r...r..rrr.................r

Turn = 550.
  012345678901234567890123456789
0 ...r..........r......r........
1 ........................r....r
2 ............................r.
3 ..............................
4 ..............................
5 ..........r......r............
6 ..r...........................
7 .r............................
8 ..............r...............
9 r............r................
0 rr............................
1 ..............................
2 r.............................
3 ..............................
4 ..............................
5 ..............................
6 .....................r........
7 ..................r..r........
8 .........r.......t.t..........
9 .........r.....ttttttt........
0 ...............ttttt..........
1 r.............tttttt..........
2 r.............tttttt..........
3 ...............rt.............
4 .........................r....
5 ...........................rr.
6 ...................r.......r..
7 ....................r........r
8 .........................r.rr.
9 .r........................r.r.

Turn = 575.
  012345678901234567890123456789
0 ..r...........r...............
1 ....r.....r.r.................
2 .....r.......................r
3 ......r........r...........r..
4 ......r..........r........r...
5 ........................r.....
6 ..............................
7 ..............................
8 ..............................
9 .....r........................
0 ........................r.....
1 ..............................
2 ..rr.........................r
3 ..............................
4 ..............................
5 ..............................
6 .............................r
7 ................tt.t..........
8 ................tt.t..........
9 r..............ttttttt........
0 ..............rttttt..........
1 ..............trtttt........r.
2 ..............tttttt..........
3 r..............t..t...........
4 r.................t...........
5 ...r..........................
6 ..............................
7 ..............................
8 r...r.........r..r............
9 ...................r..........

Turn = 600.
  012345678901234567890123456789
0 ...................r..........
1 ................r.............
2 .............................r
3 ..............................
4 .............................r
5 ..............................
6 ..............................
7 .............................r
8 ..............................
9 r.............................
0 ...........r..................
1 r.............................
2 r.............................
3 .....................rr.......
4 ..............................
5 ...........................rr.
6 r.....................r.r.....
7 ................tt.t.........r
8 r...............tt.t..........
9 .......r.....r.ttttttt........
0 ..............rrrttt..........
1 r.............trtttt..........
2 ..............t.tttt..........
3 ..................t...........
4 .............r....t...........
5 ................r.t...........
6 ............r.................
7 ..............................
8 ...............r..............
9 .r.......r....r.r...r........r

Turn = 625.
  012345678901234567890123456789
0 ........r.....................
1 ..............................
2 .....................r........
3 ..............................
4 ..............................
5 r.........rr..................
6 ..............................
7 ..............................
8 ..............................
9 r.............................
0 ..............................
1 ........................r.....
2 ..............................
3 ..............................
4 r.............r.......r.......
5 .......r......r...............
6 ..............................
7 ..........r.....tt.t..........
8 ................tt.tt.........
9 .....r.........ttttt........r.
0 ..............rttttt..........
1 ..............t.tttt.r........
2 ..............t.tttt.........r
3 r.................t.......r..r
4 r.................t......r....
5 .................tt....r......
6 .................rrrr.........
7 ..................r...........
8 .......................r......
9 .......r...........r..r.......

Turn = 650.
  012345678901234567890123456789
0 r.................rr.......r.r
1 r................r.....r....r.
2 ..........................r...
3 ..r....................r......
4 ..............................
5 ............r................r
6 ..............................
7 r....................r........
8 ..............................
9 ..............................
0 ..............................
1 ....................r.........
2 ......................r.......
3 ..............................
4 ..............................
5 ..............................
6 ..............................
7 ................tt.t..........
8 ..........r.....ttttt.........
9 ..............ttttttt.........
0 ..............tttttt..........
1 ..............tttttt..........
2 ..............t..ttt..........
3 .................tttt.........
4 ..................tt..........
5 .................ttt..........
6 .................tt...........
7 ..............................
8 ..............................
9 ..r..................r.......r

Turn = 675.
  012345678901234567890123456789
0 r...r.........r.....r...r.....
1 ...r.r........................
2 .r............................
3 ..............................
4 ..............................
5 ..............................
6 ..............................
7 ..............r...............
8 ..............................
9 ..............................
0 ..............................
1 ..............................
2 .............r................
3 ..............................
4 ..............................
5 .........rrr..r...............
6 ..................t...........
7 ...........r....tttt..........
8 ................ttttt.........
9 ..............ttttttt.........
0 ..........r...tttttt..........
1 ..............tttttt..........
2 ..............tr.ttt..........
3 .................tttt.........
4 ..................tt..........
5 .................ttt..........
6 .................tt..........r
7 ..............................
8 ..............................
9 .r.................r..........

Turn = 700.
  012345678901234567890123456789
0 .................rr...........
1 ................r..r..........
2 ..............................
3 ..............................
4 ..............................
5 ..............................
6 ....r.........................
7 ..............................
8 ..............................
9 ...............r..............
0 ..............................
1 ..............................
2 ..........................r...
3 .....r.......................r
4 ..............................
5 r...rr.......................r
6 r...r.......................r.
7 ....rr..............t.........
8 r...............ttttt.........
9 ................ttttt.........
0 r..............ttttt..........
1 r..............ttttt..........
2 .r...............ttt..........
3 .................tttt.........
4 r.................tt..........
5 r................ttt..........
6 .................tt...........
7 r.............................
8 ..............................
9 rr............r......r........

Turn = 725.
  012345678901234567890123456789
0 ...r...r............r.........
1 .................r............
2 ..............................
3 r.............................
4 ..............................
5 ..............................
6 ..............................
7 ......................r.......
8 .......................r......
9 ..............................
0 .............................r
1 ..............................
2 ...............r..............
3 ..............r..............r
4 .......rr....r...............r
5 ..............................
6 ..............................
7 ................r.ttt.........
8 ...............r.rtt......r...
9 ...............rrrttt.........
0 ...............rtttt.........r
1 ...............ttttt..........
2 .................ttt..........
3 r................tttt.........
4 .rr...............tt..........
5 .................ttt..........
6 .................tt...........
7 ......................r.......
8 ...r..........................
9 ....r........r.r.....r........

Turn = 750.
  012345678901234567890123456789
0 .rrr............r........r...r
1 r........................r.r..
2 .r.....r.r..................r.
3 .........................r....
4 ..............................
5 ..............................
6 ..............................
7 ...................rr.........
8 r.............................
9 ..............................
0 r.............................
1 ..............................
2 ..............................
3 .....r........................
4 ............................r.
5 .....rr......r...............r
6 ..............................
7 ..............................
8 ....................t.........
9 ..................ttt.........
0 ...............ttttt........r.
1 .....r.........ttttt..........
2 .................ttt..........
3 .................tttt.........
4 r.................tt..........
5 .................tttr.........
6 .................tt...........
7 ......................r.......
8 ..........................r...
9 r................r.rr...r....r

Turn = 775.
  012345678901234567890123456789
0 r........rr.r....r...........r
1 ..............r..............r
2 ..............................
3 ............r.................
4 r..................r..........
5 ......................r.......
6 ..........r...................
7 ..........r..r................
8 ...........r....r.............
9 ..............................
0 ...............r........r.....
1 ....r.........................
2 ..............................
3 ..................r...........
4 ..............................
5 ..............................
6 ..............................
7 ........................r.....
8 ....................t.........
9 .........rr.......ttt.........
0 ...............ttttt..........
1 ......r........ttttt..........
2 .................ttt..........
3 .................tttt.........
4 ..................ttt.........
5 .................ttttt........
6 .r...............ttt.......r..
7 rrr...........................
8 r.............................
9 ........r.....................

Turn = 800.
  012345678901234567890123456789
0 ......r........r..........r...
1 ..............................
2 ..r...r.......................
3 .......rr.....................
4 ..............................
5 ..............................
6 .........rr..r................
7 ..............................
8 ..............................
9 ..............................
0 .............................r
1 ..............................
2 r.r...........................
3 ..............................
4 r.............................
5 .....................r........
6 r.....................r.......
7 r.............................
8 ..................t.t..rr.....
9 ..................ttt.........
0 ...............ttttt.........r
1 r..............ttttt..........
2 .................ttt..........
3 r...........r....tttt.........
4 ..................ttt.........
5 .................ttttt.......r
6 .................ttt..........
7 .................r..r........r
8 .................r..r.........
9 ..............r...............

Turn = 825.
  012345678901234567890123456789
0 ..r...........r............r..
1 ..............r...............
2 ..............................
3 .............................r
4 ..............................
5 ..............................
6 ............r.................
7 .............r................
8 ..............................
9 ..............................
0 ..............................
1 ..............................
2 ..............................
3 ..............................
4 ...........................r..
5 r.............................
6 r.............................
7 ....................r.........
8 ..................t.tt........
9 ..................ttt.........
0 ...............ttttt..........
1 ...............ttttt..........
2 r................tttt.........
3 .........r.......tttt.........
4 ........rr........ttt.........
5 .................ttttttt......
6 .................ttt..........
7 ......r..........t............
8 .......rr.r.....r.............
9 .........rr.....r........r.r.r

Turn = 850.
  012345678901234567890123456789
0 ..r..rrrr...............r.....
1 .....r.............r..........
2 ...................r..........
3 ..................r...........
4 ..............................
5 ..............................
6 ..............................
7 .......rr.............r.......
8 ..............................
9 .........r...................r
0 ..............................
1 ..........r..................r
2 ..............................
3 ..............................
4 ..............................
5 ..............................
6 ..............................
7 ..............................
8 ..r.................rr........
9 ..................t.t.........
0 ...............ttttt..........
1 ...r...........ttttt..........
2 .................ttttt........
3 ................ttttt.........
4 .................tttt.........
5 .................ttttttt......
6 .................ttt..........
7 r................t............
8 .............r..............rr
9 r.r...........................

Turn = 875.
  012345678901234567890123456789
0 ...r..rr...............r......
1 ..............................
2 ..............................
3 r............................r
4 r.............................
5 rr............................
6 r.............................
7 r...........................r.
8 .............................r
9 rr...........................r
0 ............................r.
1 ..............................
2 ..............................
3 ..............................
4 ..............................
5 ..............................
6 r.............................
7 .......r......................
8 r.............................
9 ..................tt..........
0 r..............tttttt.........
1 ...............ttttttr........
2 .................tttt.........
3 ................tttt..........
4 .................ttttt........
5 ......r..........ttttttt......
6 .................ttt......r...
7 .................t..........r.
8 ..............................
9 ...........................r..

Turn = 900.
  012345678901234567890123456789
0 ...........r......r...........
1 ..........................r...
2 ............................r.
3 r.............................
4 .......................r......
5 ..................r....r......
6 ........................r.....
7 ..........r...................
8 ..............................
9 .r............................
0 ......................r.......
1 ..............................
2 .....................r........
3 ..............................
4 ................r.............
5 r.............................
6 ..r...........................
7 ..............................
8 r.............................
9 ..................tt..........
0 ...............tttttt.........
1 ...........r...tttttt.........
2 ....rr...........ttttt........
3 ................tttt..........
4 .................ttttt........
5 .................ttttttt......
6 .................ttt.........r
7 r................t............
8 ..............r...............
9 .................r........r...

Turn = 925.
  012345678901234567890123456789
0 ..............r...............
1 .............................r
2 ..............................
3 r.............................
4 ..............................
5 ..............................
6 ....r.........................
7 ....r........r................
8 ..............r...............
9 ..................r...........
0 ...................r.........r
1 r.............................
2 ..............................
3 ....r...................r.....
4 .....................r........
5 ...................r.....r....
6 ..............................
7 ..............................
8 ..............................
9 ................t.tt..........
0 ...............tttttt.........
1 ...............tttttt.........
2 .................ttttt........
3 r...............tttt.........r
4 .................ttttt.......r
5 .................ttttttt.....r
6 .................ttt.........r
7 .................t............
8 ......r..........t............
9 ......r.......................

Turn = 950.
  012345678901234567890123456789
0 ..............rrr........r...r
1 ..............................
2 r.............................
3 ..............................
4 ..............................
5 ............................r.
6 .............................r
7 .............................r
8 ..............................
9 ..............................
0 r.....r.......................
1 ..............................
2 ..............................
3 ..............................
4 ..............................
5 ..............................
6 ..............................
7 ............r................r
8 ..............................
9 ................t.ttt.........
0 ...............tttttt.........
1 ...............ttttttt........
2 .................ttttt........
3 ................tttt..........
4 .................tttttt.......
5 .................ttttttt......
6 .................tttt..t.....r
7 .................t..........r.
8 r.............................
9 ............r............r...r

Turn = 975.
  012345678901234567890123456789
0 ....r.........................
1 r...........r.................
2 ..............................
3 ..............................
4 ..............................
5 r............r................
6 .............r................
7 ..............................
8 ..............................
9 r.............................
0 .............................r
1 ..............................
2 ..........................r...
3 ..............................
4 ..............................
5 ......................r.r.....
6 ...............r..............
7 ..............r...............
8 ....................r.........
9 ...............tt.ttr.........
0 ...............tttttt.........
1 ............r...tttttt........
2 .................ttttt........
3 ................tttt..........
4 .....rr..........tttttt.......
5 .................tttttt.......
6 .................tttt.........
7 .................t............
8 .......r.....................r
9 ...r............r.............

Turn = 1000.
  012345678901234567890123456789
0 .....rr........r...rr........r
1 ..............................
2 ..............................
3 ......................r.......
4 .......................r......
5 .........................r....
6 ..............................
7 .....................r........
8 ..........................r...
9 ..............................
0 .............................r
1 ..............................
2 rr............................
3 r.............................
4 ..............................
5 ..............................
6 ..............................
7 ..............................
8 ........r.........t...........
9 ...............tt.ttt.........
0 r..............tttttt.........
1 .r..............tttttt........
2 .................ttttt........
3 ................tttt..........
4 .................tttttt.......
5 .................tttttt.......
6 .................tttt.........
7 .................t............
8 ..............................
9 ........................r..r..

*** Darwin 20x20 ***
Turn = 0.
  01234567890123456789
0 hhhhhhhhhhhhhhhhhhhh
1 h..................h
2 h..................h
3 h..................h
4 h..................h
5 h..................h
6 h..................h
7 h..................h
8 h..................h
9 h..................h
0 h..................h
1 h..................h
2 h..................h
3 h..................h
4 h..................h
5 h..................h
6 h..................h
7 h..................h
8 h..................h
9 hhhhhhhhhhhhhhhhhhhh

Turn = 4.
  01234567890123456789
0 h..................h
1 hh................hh
2 .hh..............hh.
3 ..hh............hh..
4 ...hhhhhhhhhhhhhh...
5 ....h..........h....
6 ....h..........h....
7 ....h..........h....
8 ....h..........h....
9 ....h..........h....
0 ....h..........h....
1 ....h..........h....
2 ....h..........h....
3 ....h..........h....
4 ....h..........h....
5 h...hhhhhhhhhhhh...h
6 ...hh..........hh...
7 ..hh............hh..
8 .hh..............hh.
9 .h................h.

Turn = 8.
  01234567890123456789
0 h..................h
1 hh................hh
2 .hh..............hh.
3 ..hh............hh..
4 ...hh..........hh...
5 ....hh........hh....
6 .....hh......hh.....
7 ......hh....hh......
8 .......hhhhhh.......
9 ........h..h........
0 ........h..h........
1 h.......hhhh.......h
2 .......hh..hh.......
3 ......hh....hh......
4 .....hh......hh.....
5 ....hh........hh....
6 ...hh..........hh...
7 ..hh............hh..
8 .hh..............hh.
9 .h................h.

Turn = 12.
  01234567890123456789
0 h..................h
1 hh................hh
2 .hh..............hh.
3 ..hh............hh..
4 ...hh..........hh...
5 ....hh........hh....
6 .....hh......hh.....
7 h.....hh....hh.....h
8 .......hh..hh.......
9 ........hhhh........
0 .........hh.........
1 ........hhhh........
2 .......hh..hh.......
3 ......hh....hh......
4 .....hh......hh.....
5 ....hh........hh....
6 ...hh..........hh...
7 ..hh............hh..
8 .hh..............hh.
9 .h................h.

Turn = 16.
  01234567890123456789
0 h..................h
1 hh................hh
2 .hh..............hh.
3 h.hh............hh.h
4 ...hh..........hh...
5 ....hh........hh....
6 .....hh......hh.....
7 ......hh....hh......
8 .......hh..hh.......
9 ........hhhh........
0 .........hh.........
1 ........hhhh........
2 .......hh..hh.......
3 ......hh....hh......
4 .....hh......hh.....
5 ....hh........hh....
6 ...hh..........hh...
7 ..hh............hh..
8 .hh..............hh.
9 .h................h.

Turn = 20.
  01234567890123456789
0 h..................h
1 hh................hh
2 hhh..............hhh
3 ..hh............hh..
4 ...hh..........hh...
5 ....hh........hh....
6 .....hh......hh.....
7 ......hh....hh......
8 .......hh..hh.......
9 ........hhhh........
0 .........hh.........
1 ........hhhh........
2 .......hh..hh.......
3 ......hh....hh......
4 .....hh......hh.....
5 ....hh........hh....
6 ...hh..........hh...
7 ..hh............hh..
8 .hh..............hh.
9 .h................h.

*** Darwin 20x20 ***
Turn = 0.
  01234567890123456789
0 hhhhhhhhhhhhhhhhhhhh
1 h..................h
2 h..................h
3 h..................h
4 h..................h
5 h..................h
6 h..................h
7 h..................h
8 h..................h
9 h..................h
0 h.........r........h
1 h..................h
2 h..................h
3 h..................h
4 h..................h
5 h..................h
6 h..................h
7 h..................h
8 h..................h
9 hhhhhhhhhhhhhhhhhhhh

Turn = 5.
  01234567890123456789
0 h..................h
1 hh................hh
2 .hh..............hh.
3 ..hh............hh..
4 ...hh..........hh...
5 ....hhhhhhrhhhhh....
6 .....h....r...h.....
7 .....h........h.....
8 .....h........h.....
9 .....h........h.....
0 .....h........h.....
1 .....h........h.....
2 .....h........h.....
3 .....h........h.....
4 h....hhhhhhhhhh....h
5 ....hh........hh....
6 ...hh..........hh...
7 ..hh............hh..
8 .hh..............hh.
9 .h................h.

Turn = 10.
  01234567890123456789
0 h..................h
1 hh................hh
2 .hh..............hh.
3 ..hh............hh..
4 ...hh..........hh...
5 ....hhr.......hh....
6 .....hrr.....hh.....
7 ......hh....hh......
8 .......hh..h........
9 h.......hhhh.......h
0 .........hh.........
1 ........hhhh........
2 .......hh..hh.......
3 ......hh....hh......
4 .....hh......hh.....
5 ....hh........hh....
6 ...hh..........hh...
7 ..hh............hh..
8 .hh..............hh.
9 .h................h.

Turn = 15.
  01234567890123456789
0 h..................h
1 hh................hh
2 .hh...rr.........hh.
3 ..hh............h...
4 h..hh.r.......h.h..h
5 ....rr......h.......
6 .........rh....h....
7 ....r...h...........
8 ..........r...h.....
9 .....r..rrr.........
0 ........rrrh.h......
1 .......rrrrhh.......
2 .......hh..hh.......
3 ......hh....hh......
4 .....hh......hh.....
5 ....hh........hh....
6 ...hh..........hh...
7 ..hh............hh..
8 .hh..............hh.
9 .h................h.

Turn = 20.
  01234567890123456789
0 h....rr..r..........
1 hh...r.........h...h
2 hhh..........h.....h
3 ...h.......h........
4 ......h..h..........
5 ...h...h..........h.
6 ....................
7 r...h...r........h..
8 ....h...rr.....r....
9 ....r...r.......h...
0 ....r....rr.r.......
1 ......rr...rh..h....
2 .......hr.rrrh......
3 .....rrh.r.rhhh.....
4 .....r.......hh.....
5 ....hh..rr....hh....
6 ...hh..........hh...
7 ..hh............hh..
8 .hh..............hh.
9 .h..................

Turn = 25.
  01234567890123456789
0 hr.........r..r.....
1 hrr.......h........h
2 .....h..h..........h
3 .......hh...........
4 .h.....hh...........
5 ..h.................
6 .........r..........
7 h.hr...hr...........
8 ...rr.r...........r.
9 r..rr...............
0 .....h...........rr.
1 .rr.h.........r.....
2 r.......r..r..rrrr..
3 ....r...rrrr..hhrhh.
4 ...h.r...rh...hh....
5 ........h.rh........
6 ..h...h....h........
7 ....h.....rrh.......
8 .hh......r..h.......
9 ........rr..........

*** Darwin 2x2 ***
Turn = 0.
  01
0 t.
1 ..

Turn = 11.
  01
0 t.
1 ..

Turn = 22.
  01
0 t.
1 ..

Turn = 33.
  01
0 t.
1 ..

*** Darwin 22x22 ***
Turn = 0.
  0123456789012345678901
0 .ff.hrr.....f..f.h..th
1 h.r.f.t.....r..fhr....
2 f...t.tt..t.f.ffh.hht.
3 f..r.r.......h...hrf.h
4 .....h..tr.......rt...
5 .h....r..t.....rr.t...
6 .....tf..h.hr.ht..f...
7 r.r.r..t.th.t..t....t.
8 .r.f.f.rh..t..t.....h.
9 ..hh.r.h...r.fhffr..rh
0 f.....t.ttttt..r.hh..h
1 ....r...ttttfft.......
2 .h......tttttt.r......
3 r.......f.f.....h.t.h.
4 ............h...h....r
5 ...fh....t..r.....r..h
6 r....hr...........h.t.
7 ....t.............h.h.
8 ...fh.h.......t.h.fff.
9 ...h........r.f.f.....
0 h..f..r.....f.tr...h.t
1 h...t...ht.h.hf..r..tt

Turn = 20.
  0123456789012345678901
0 .....r....rr.rr..rrr.r
1 .r...rrr..r...r...rrrr
2 r....rr.rr.r....r.....
3 rr.....rrrrr.......r..
4 r...r...r..r.r..r....r
5 .......rrtrr.r........
6 .....r...tt.....r.....
7 .r....rtttttr.....r...
8 rr........ttr..rr.r..r
9 rr........rr.r.rr.r...
0 .......rtrttr.rt.r...r
1 ........ttttttttt.r..r
2 .r.....ttttttrtr...r.r
3 r.r.r...t..t.r...r....
4 .r..........r.rr.....r
5 ............rr.r......
6 ..r.t....rr.........r.
7 ..rrtt.............tt.
8 r.r..........r.....ttt
9 r..t..........rtt.....
0 .rrtt.......r.tt.....t
1 rr..t..rr...rrr....ttt

Turn = 40.
  0123456789012345678901
0 rrrr.r.....r.rr..r.r..
1 .rrrrr................
2 r..rr........rrr......
3 r.rrr.r..r..........rr
4 .........ttr..rrr....r
5 ...r.....tt.rr.....r..
6 ....r....tttrrr.......
7 r...rr...tttt.rrr....r
8 .r..r.r...ttt...rrr.rr
9 r.....r.r.tttr........
0 ......r..rr...ttr.....
1 ....rrr.rtttttrr.r....
2 ...rr..rrttttt.......r
3 ..r...r.rrtrrt.......r
4 .r.r..rr.rrrtttt......
5 rr..r..t.r....r..rr...
6 r.r...........r......t
7 .r...........r.rr.rr..
8 ............r..r...rrr
9 r........r.......r...r
0 ........r....rr.....tr
1 r....tt...rr..r.....tt

Turn = 60.
  0123456789012345678901
0 rrrr..rr...r.......r..
1 .r.r.rr..............r
2 .rr....r...........r.r
3 .r.r...r...t......r.rr
4 ...r....tttttt.....r..
5 ....rr..rtttttt.......
6 r......rrttttttt......
7 r..r...r.r.ttt.t......
8 r.rr.rr...rrtt.t.....r
9 .rrrr....ttttt.t.....r
0 .rr...........tttt..r.
1 .rr.......rrrtttt.....
2 ......r..tttrrr.t.....
3 rr.r.......r.rrt......
4 ...........rrrrrt.....
5 ..rr.....r..rrrtt.....
6 rr...rr..r......t.....
7 .rr.....r...r.........
8 ..r....r.rr......rr...
9 ..r.......rr....rr.tr.
0 r.r...r............t.r
1 r....rr...rrr..r.rrr.r

Turn = 80.
  0123456789012345678901
0 rrr..rrrrrr...........
1 rr.r.r.r...r.........r
2 r.....r..........r.r..
3 r.........rt.r...r....
4 rr.rrr..rrttttt.......
5 .r..r..r.rtttrt..r....
6 rr.r..r...tttrrr......
7 .rrrrrrr..ttrr.t......
8 .rr....r.rtt.r.t......
9 .rr.r....r.rr..t.tr...
0 .........r.r.tttttr...
1 .r.......r...rtttt....
2 rrrr...r.r..rrt.t....r
3 rrr.....r.....tt.....r
4 ..r...r.............r.
5 r.r..rr.rr.r........r.
6 ..rr.....r..r.........
7 r...r...r.r..........r
8 ..r..rr.........r...t.
9 r........rrr.......ttt
0 rr....r.rrrr..r...ttt.
1 ..........r.rrr.......

Turn = 100.
  0123456789012345678901
0 r.r.....rrr......r....
1 .....r.rr...r.rr.r....
2 ..rrrr...r...rr.......
3 ..r....rr..t..r......r
4 rr.rrr...rr.rrr.r.....
5 .r.rr....r..rrrrr.....
6 ...rrrr....rrrtt......
7 r.r.....r.......r....r
8 rrr...rr..rr.r..rtt...
9 rrr....r..rr..r..ttt..
0 .rr...r.rrrrr.rtttt...
1 r..r..rrrr.....rr.....
2 .r...r.r........rrr...
3 rrrr....rr..rr...rr..r
4 ...rr........r..r...r.
5 rrrrr............r....
6 r....r............rrr.
7 rr...r......rr....r...
8 r..........r..........
9 r.r...rr..r....rr.....
0 r.r...rrr.r......r..r.
1 .rrr..rr....r.......tr

Turn = 120.
  0123456789012345678901
0 .r.rrr.rrr.....r.r..rr
1 ..rr....r........r...r
2 rrr...r...rr..........
3 rrr...r.rr.r.........r
4 .r..r.r.r..r......r.r.
5 rrr..r.rr...........rr
6 rr.rr....r...r.....r..
7 r...rr......rrr.......
8 .......r.....rrrrr....
9 rr.r.....rr......r....
0 rr.rrr.rr.......tt..r.
1 rrrrr....rrrr..ttt....
2 .rr..r......r....t....
3 rr..rr..rr..........r.
4 r.r.rr....rr...r......
5 rr..rr.r...rr.........
6 rrr.r....rr.r.r......r
7 rrr..rr...rr.r.......r
8 rrrr...r.......r..r...
9 .r.rr...r.r......r.rr.
0 ...rrr....r...r.....rr
1 ...rr.r...r.rr....rr..

Turn = 140.
  0123456789012345678901
0 .r.rrrrrr.r.r.......rr
1 rrr.rrrr.r.r.....r...r
2 rr.....rr....rrrr..r.r
3 r..r..r.r......rrr..rr
4 r.r..rr...r..r........
5 .rrr.r......r.........
6 rrr.rrr.............r.
7 rr..r..r....r.r.r...r.
8 rr.....r......r.r.....
9 rr.....rr.........rr.r
0 r....r.rr..........r..
1 .r...rrr......rr..rrr.
2 .r...r..rrrr..rttt...r
3 ..r..rrr.......tt.....
4 rrrrr............r.r.r
5 rrr.........r........r
6 rr.rr..r.........r....
7 .r.rrr.....rrr.......r
8 rrrrrr.......rrr......
9 rrrrr..............r..
0 rr...r.....r........rr
1 .r....r.rrr.r..r.....r

Turn = 160.
  0123456789012345678901
0 rrr....rr.rrr.....r..r
1 .r.......r.r........r.
2 rr......rr.rr.........
3 rrrr.rrr..rrr.....r..r
4 rrrrr.r.r...r.r.......
5 rr.rr........r...r....
6 rrr.r...r.r...........
7 rrr..rrr........r.....
8 .r.rr.r.r....rr.....r.
9 r..r..r.....rr........
0 .rrr.r.........r....r.
1 .....rrrr...r..rr.rr..
2 ..r..rrr...r....rr....
3 .rrr.rr...r....rrr....
4 rrrrr.r...rr.r....r...
5 .rrrr.....rr..r......r
6 rrr.rr...r...........r
7 rrrrrr.r.r............
8 r..........r..r.r....r
9 ....r..r......rr...rr.
0 ..rr...rrr............
1 r.rr...rrrrrr..r.r.rr.

*** Darwin 24x24 ***
Turn = 0.
  012345678901234567890123
0 hhhhhhhhhhhhhhhhhhhhhhhh
1 ........................
2 ........................
3 ........................
4 ........................
5 ........................
6 ........................
7 ........................
8 ........................
9 ........................
0 tttttttttttttttttttttttt
1 ........................
2 ........................
3 ........................
4 ........................
5 ........................
6 ........................
7 ........................
8 ........................
9 ........................
0 ........................
1 rrrrrrrrrrrrrrrrrrrrrrrr
2 rrrrrrrrrrrrrrrrrrrrrrrr
3 rrrrrrrrrrrrrrrrrrrrrrrr

Turn = 11.
  012345678901234567890123
0 ........................
1 ........................
2 ........................
3 ........................
4 ........................
5 ........................
6 ........................
7 ........................
8 ........................
9 ttthttthttthttthttthttth
0 tttttttttttttttttttttttt
1 .r....rr..r..rr.....r.rr
2 .r.....r......r.........
3 r...r...rr.rr...rr......
4 ..r.rr..rr.rr......r...r
5 .....r.rrr.r.r....r..r..
6 ................rrr.....
7 ..r...........r........r
8 .r......................
9 r.............r....rrr..
0 ..r..r.......r.........r
1 .r......rr..r.r...r.....
2 rr..............rr......
3 .r....r..r..r..rrrr...r.

Turn = 22.
  012345678901234567890123
0 ........................
1 ........................
2 r...........r...........
3 ............rr..........
4 .............r..........
5 ........................
6 ........................
7 .............r..........
8 ........................
9 .ttttttttttt.rtttttttttt
0 ttttttttttttt.tttttttttt
1 ttt..tttrrtt......trtr.t
2 r.r.r.r..rt.....rrtrrrtt
3 ..r.rr....r...rr.r..r.rt
4 rrr............r..r..r..
5 .r...r..r.....r.r.......
6 ......rr...r...........r
7 ........................
8 ..r.....r...............
9 ...........rr..........r
0 ........................
1 r..r....................
2 ..r..r.................r
3 .........r..r.....r..rr.

Turn = 33.
  012345678901234567890123
0 ......r..r....r.........
1 ....r....r..............
2 ........................
3 ........................
4 ........................
5 ........................
6 ........................
7 r...........r..r...r....
8 ............r..r........
9 .ttttttttttt....rrt.tttt
0 ttttttttttttt...rrtttttt
1 ttt..ttttttt....r..trtt.
2 t....t......rr......rrtt
3 r................r...ttt
4 ........r.............tt
5 ...................r..t.
6 ..r.............r.r..r..
7 r...................r...
8 r..r...r...........r....
9 ..r..................r..
0 ................rrr.....
1 .r......rr..............
2 r.rrrrr...r............r
3 r...rrrr...r..r.rr..r.r.

Turn = 44.
  012345678901234567890123
0 rr................r...r.
1 r...............r......r
2 ................r.......
3 ........................
4 ........................
5 rr......................
6 r.......................
7 r.r.....................
8 ..r...................r.
9 r..rtttttttttt....t.tttt
0 ..rr.tttrttttt....tttttt
1 ..rr.tttrtttt.....rtttt.
2 r..rrr.tr.........r.tttt
3 r....r......r........ttt
4 r....r.r.......r......tt
5 ...r..................tr
6 .rr.rr.r..r......r....t.
7 r.r....r.r.....r........
8 ........................
9 r.................r.....
0 .......................r
1 r...r..r................
2 .....r..rr....rr........
3 rr...........rrr.......r

Turn = 55.
  012345678901234567890123
0 ..r.....r...............
1 .r..rr..................
2 ....r...................
3 .....r.........r.......r
4 ........................
5 r....r....r......r......
6 ...............r........
7 rrrrr..................r
8 ...r.r...............t.r
9 rrr...tttttttt....t.tttr
0 .rrrr.rttttttt....tttttr
1 r...r.r.ttttt..r..ttttt.
2 ..rr.r...ttt......t.tttt
3 r..rr..........rr.t..ttt
4 ...r.........r........tt
5 .r....................tt
6 r.....................tr
7 .....rr................r
8 r....r...r..............
9 ..r.....................
0 ........................
1 ...............r..r.....
2 ..rr.r..................
3 rr...rr....r..........r.

Turn = 66.
  012345678901234567890123
0 .rrr........rr.rr.......
1 .....r.........r........
2 ..r...r........r........
3 rr......................
4 rr......................
5 r.r..........rr......r..
6 r..r.r............r.....
7 r..............r........
8 ......r.........r....tt.
9 ...rrr..tttttt....t.trtt
0 r.......tttttt....ttttt.
1 .....rrrrtttt.....tttttr
2 .r...r..rt...r.r..t.tttt
3 r....r............t..ttt
4 ....r.r...........t...tt
5 rrrr...r.r............tt
6 .r....................tt
7 rr.....................r
8 ................r......r
9 .rr....................r
0 .r................rr....
1 ...........r............
2 ..r.....................
3 ....rr..........r.......

Turn = 77.
  012345678901234567890123
0 r.....rr..r.r........r.r
1 ........r.......r.......
2 .....r.r.........r....r.
3 r.......................
4 r.........r.............
5 r....r..r.......r.r....r
6 ....r...rrr.r...........
7 .......rr...............
8 ...........ttt....t...t.
9 ........tttttt....t.tttt
0 .rr.....tttttt....ttttt.
1 r..r....tttttr.....ttttt
2 ....r....t........tttttt
3 r.................t..ttt
4 ....r..rr........rtt..tt
5 r..r.....r..........r.tt
6 ...rr.................tt
7 .r.......r.......r....tt
8 r.......................
9 .........rr.............
0 r.......................
1 ........................
2 ...r.r.r.rr.............
3 ..r........r........r..r

Turn = 88.
  012345678901234567890123
0 .r.rrr.......r....r...rr
1 ...r.................rr.
2 .........r....r....r....
3 r...r...................
4 .......rr.......r......r
5 ...r......r.............
6 r......................r
7 ..r.....r....t..........
8 .........rrttt...rt...tt
9 r...rr.r..rrtt....t.tttt
0 .rr...r...rttt....ttttt.
1 ..r........ttt.....ttttt
2 .......r...r..r.r.tttttt
3 ......r...........tt.ttt
4 ...r.................trt
5 ..r...........r.....rrrt
6 .......rr.....r.......rt
7 ....r...............r.rt
8 r....................r..
9 ........................
0 ........................
1 rrr.....................
2 r.r...........r.....rr..
3 ....r...r.......r.rr....

Turn = 99.
  012345678901234567890123
0 .rr..r.....rr......r....
1 .......r....r...........
2 .........r..........r...
3 rr......................
4 .................r......
5 ................r.......
6 .........rr.......r....t
7 r..rr............rr....t
8 r.rr........tr....r..ttt
9 .r.........rtr...r.rtttt
0 r.r.....r.r.tt.....trtt.
1 rr......r..ttt..r..ttttt
2 ...................ttttt
3 .r............rr.rrttttt
4 ..................r.rttt
5 rr.........r.....r...trt
6 ......r...r..........rrt
7 ....................r..t
8 ....r.r...r....r........
9 r....r...r..........rr..
0 r................r......
1 .r.r...r............r...
2 .......................r
3 .....r.....r...r.r..r...

Turn = 110.
  012345678901234567890123
0 ...r.r..r......r..r.....
1 ...........r.rr...rr....
2 .....r........r.........
3 r.....r...........r.....
4 r.....r....r............
5 r..r.rr.................
6 r.....r................t
7 ....r....r.............t
8 .....r......ttt.....t.tt
9 .....rr.....ttt.....tttt
0 .......r....ttt.r..ttt.t
1 .............t.....ttttt
2 r.r....rr..........ttttt
3 .........rr.r......t.ttt
4 ...........r........tttt
5 .........r...........ttt
6 ...........r..........tt
7 .........rr.r..........t
8 r.................r.....
9 ...........r...r....r...
0 ...........rr......r....
1 ...........r......rrr...
2 ..r.....r...r....rr....r
3 rrrrr........r.r...r.rrr

*** Darwin 1x80 ***
Turn = 0.
  01234567890123456789012345678901234567890123456789012345678901234567890123456789
0 r........................f.f......................r........................f...r

Turn = 5.
  01234567890123456789012345678901234567890123456789012345678901234567890123456789
0 .....r...................f.f.................r.............................f..r.

Turn = 10.
  01234567890123456789012345678901234567890123456789012345678901234567890123456789
0 ..........r..............f.f............r................................rr.....

Turn = 15.
  01234567890123456789012345678901234567890123456789012345678901234567890123456789
0 ...............r.........f.f.......r................................rr..........

Turn = 20.
  01234567890123456789012345678901234567890123456789012345678901234567890123456789
0 ....................r....f.f..r................................rr...............

Turn = 25.
  01234567890123456789012345678901234567890123456789012345678901234567890123456789
0 ........................rr.rr.............................rr....................

Turn = 30.
  01234567890123456789012345678901234567890123456789012345678901234567890123456789
0 .......................r.rr......r...................rr.........................

*** Darwin 13x18 ***
Turn = 0.
  012345678901234567
0 .t...........h....
1 ...r.ht...........
2 ..f.r...h..f....h.
3 ....r......t......
4 r.fr.......rh.....
5 ...r.f....f.......
6 ........tt.t..h...
7 ........t.......t.
8 .......r..r.h..t..
9 .ft..h.f...t......
0 .......t.t.......h
1 r......f......fh..
2 .f....f......f....

Turn = 15.
  012345678901234567
0 .........r.r.r....
1 ..r...tt..........
2 r..........tt....h
3 ..r........t......
4 ..................
5 r....f...t........
6 .....h..tt.t......
7 r.......t.......t.
8 .tt.r.r.......tt..
9 ..t....t...t......
0 ......tt.t.t..h...
1 .r.....t......f...
2 r....r.....rrr.h..

Turn = 30.
  012345678901234567
0 r.........r.......
1 ..................
2 ..........ttt....h
3 ..r........ttr....
4 ......r.......r...
5 .....f...t........
6 .....h.rtt.t....rr
7 ........t.tt......
8 .t.......r....trt.
9 tt.....tt.....t...
0 ....r.tt.tt.......
1 .......t......r...
2 r..r...t........r.

Turn = 45.
  012345678901234567
0 r.............r...
1 ............t.....
2 ..........ttt.....
3 r..........tt.....
4 .r.....r..........
5 .r...f...t........
6 .r...h..tt.t...r..
7 r.......t.tt.....r
8 r.......t..tt.tttr
9 r.............t..t
0 .........tt.......
1 .rr......t........
2 .rrr......r.......

Turn = 60.
  012345678901234567
0 rrrr....r..r.....r
1 ...r........t.....
2 r..r......t.t.....
3 r.......rrrtt.....
4 ..................
5 .........t........
6 .......ttttt......
7 .......tt.tt......
8 ........t..tt.tttt
9 ..............t..t
0 .........rt.......
1 .......rrr........
2 ..rr..............

*** Darwin 18x25 ***
Turn = 0.
  0123456789012345678901234
0 ...r.....r.....t..r.h...f
1 ........................t
2 .........................
3 ..t......r..............t
4 .....h..............f....
5 r.......h......h.r..f....
6 ..h........f.............
7 ....................r....
8 ...........h.....h..h....
9 ....h.....f........h.....
0 .....................t...
1 .....................r...
2 .f......r...tt...........
3 ...r.....................
4 h..............h.........
5 ...................t.....
6 .........h........r.f....
7 ...f......t.....f.....h.t

Turn = 4.
  0123456789012345678901234
0 r..............t.....r.ht
1 r................r......t
2 .........................
3 ..t.....................t
4 ........hr.......h..f....
5 ...........rr.......f....
6 ......h..r.f.............
7 .........................
8 .......h................r
9 h.........f..............
0 ....................rt...
1 ..................r......
2 .f..r....h..tt....r......
3 ...................r.....
4 ...........h.............
5 ...................t.....
6 ...r................f....
7 h..r......t.....f.....h.t

Turn = 8.
  0123456789012345678901234
0 .r.............rrh.....rt
1 ...r........r.........r.t
2 ...........r.............
3 ..t.....................t
4 ...........h........f....
5 ....................f...r
6 .........h.f.............
7 .........................
8 ...h.....r........r......
9 h........rf..............
0 .........r...........t...
1 .r............r..........
2 .r..........tt...........
3 .........................
4 .......h...........rr....
5 .................r.......
6 r...................f....
7 rr........t.....f.....h.t

Turn = 12.
  0123456789012345678901234
0 .....r....r..rr..h.r....t
1 .......r....r...........t
2 ........................r
3 ..t...................r..
4 ...............h..r.f....
5 ....................f.r..
6 ..........hf.............
7 .r........r..............
8 h........r..r............
9 h........................
0 r............r.....r.t...
1 ..........r..............
2 ............tt...........
3 .r.......................
4 ...h.....................
5 .............r...........
6 r.r....................r.
7 ..........t.....f...r.h.t

Turn = 16.
  0123456789012345678901234
0 .......r.r......r.r.....t
1 ........r..r....r.r.....t
2 ........................t
3 .rt...............r......
4 .........r.........hf....
5 ............r.......f....
6 ............r.r....r.....
7 ............r............
8 r...............r........
9 rr....................r..
0 .................r...t...
1 r.....r..................
2 r...........tt...........
3 .........................
4 h........................
5 .........r...............
6 ......r.................r
7 ..........t.....fr....h.r
